{
    "hashes": {
        "appinfo\/app.php": "fefc92e63405ab6275ebd1a33bf19f2ea89a003981b6638b6af72374da04f9cf56a82f98a3d8644f59141c8d987654c238384d51c44a75eefabbb2743b538948",
        "appinfo\/info.xml": "19f4b52c2842b8eeb449faa5937e8a719502604cf6d3918cad60a764bb1e21a8d104361d68dcf0dd579a1dcfa19ce2b950019e34667686a1885b0ae68d8f55b7",
        "composer\/autoload.php": "e8168703bf1348f3938b6f2aa799ca6757f94841a3bac988e2e6abf551603d7587cbc42dfd46e084d41ded7b117124e5a01f2d6bbbcaeb6ca5acf66d4e8cce13",
        "composer\/composer.json": "10ccf54372c4ecd679933ecad4ec4f61e1d19f32dec40c7765a929ac745804b91ff798b05ccb4bb0b9bdfa47948eea7dc2d5d11b9dcbe92b669f69effc7cd87b",
        "composer\/composer\/ClassLoader.php": "6d630ae5c62bd43ae490e02b0e1eab6f9a4b92364b617e0dbb4404ff11bc33db238568dcc3df9d8de616f191109853bf9d9a408030f1252fa7e420e5321227af",
        "composer\/composer\/LICENSE": "f3bb64009f41a425df5a9bbab53490f0eb9b74fa8d6aaa2f57efb928edc4ffff330260666edeaa04a91fed708c3663371cf01b284f3a08d6698aaef7a23f355a",
        "composer\/composer\/autoload_classmap.php": "e279015670ef397c92af187b262cecbdb47d4919ce88c7f95d6be63909c9e481d68811179e7e6373d0decbd34fb9906357b0577af19a8e282c8bdb5ac07a1c17",
        "composer\/composer\/autoload_namespaces.php": "dd8ee31d2faa9014fe567e1f954b5e7f450cf06feacbb96d4df663c59b1a36a0b7d26ad41b46354bd14f282fa7899298137208d1851099cd3ada285650efd90f",
        "composer\/composer\/autoload_psr4.php": "9938cecb63f7c2e6718083339ee34fe8577748f0ef43ffa804c2cbe679d0206c06d8f58b3c8a1f5e338cf13e2bdbf1efb2fa19763f940e6a504553fb4dbf9bbb",
        "composer\/composer\/autoload_real.php": "6ce2e15ce9534f25d60adae12289dc55148cb3ed191cd4d51a5f0701cb5d46b59500bc274441521b0bff4ca34349e68ee46e12ec52bb793624e3b0bc15d7417f",
        "composer\/composer\/autoload_static.php": "a9469f6d14192422160534b7aa9c4f679084288e3a19547a32c25687bcb15427ab9d852151fe0a0d21a9d319246d237105eceaad691b9bf66639a6c8ec9c1b2d",
        "lib\/BackgroundJobs\/RetryJob.php": "10e0d4ac4f2a15267631295b7f72b4c1adfd0a420707bab3c535c1749d2131af7488198b4a5ee6d96a4f372483126b904b50f8df1f18dfd1cc366eaec5fa278b",
        "lib\/UpdateLookupServer.php": "68819d942f70c3a01e031d531809c62335997f1c4ae7cdb19b117f2ccd214f9579c437a3d3ee627ce46331cce37d0237b35bd10768df7eca8d4c6301354fe5f4"
    },
    "signature": "DvYG5PTu2gLJ35OKJ2Xg5\/rS9yb9u22xkG5Z7SOLpIGbl7nLgzeyD9gl7dSdxg5ETOHVsPuZSgbguujl3PYkCHWlUnH3PWO6dMNTYgR6n8C5z85e6b0uB3agzHMF1GjxrH6Pn1IhBZBHMusuw03Q406AFCsHv5rNQrE60ywRaEKD84A1B1t1onAgU4s4CxLBTduKyFpFrepwwaBauHHdGWVblOTnNBrA\/lRJ8EpiTYAJVn8fTxXrjVPCy5K8Ac9e5ze15akZb2Bd\/nt5y19uNbJGcow6Toqyk8OtwVxYW+Vb6kv1CL66QPjW4QVJmTOPgI8zXCv4izjfzKmwV5yTjA==",
    "certificate": "-----BEGIN CERTIFICATE-----\r\nMIIEojCCA4qgAwIBAgICEAAwDQYJKoZIhvcNAQELBQAwezELMAkGA1UEBhMCREUx\r\nGzAZBgNVBAgMEkJhZGVuLVd1ZXJ0dGVtYmVyZzEXMBUGA1UECgwOTmV4dGNsb3Vk\r\nIEdtYkgxNjA0BgNVBAMMLU5leHRjbG91ZCBDb2RlIFNpZ25pbmcgSW50ZXJtZWRp\r\nYXRlIEF1dGhvcml0eTAeFw0xNjA2MTIyMTA1MDZaFw00MTA2MDYyMTA1MDZaMGYx\r\nCzAJBgNVBAYTAkRFMRswGQYDVQQIDBJCYWRlbi1XdWVydHRlbWJlcmcxEjAQBgNV\r\nBAcMCVN0dXR0Z2FydDEXMBUGA1UECgwOTmV4dGNsb3VkIEdtYkgxDTALBgNVBAMM\r\nBGNvcmUwggEiMA0GCSqGSIb3DQEBAQUAA4IBDwAwggEKAoIBAQDUxcrn2DC892IX\r\n8+dJjZVh9YeHF65n2ha886oeAizOuHBdWBfzqt+GoUYTOjqZF93HZMcwy0P+xyCf\r\nQqak5Ke9dybN06RXUuGP45k9UYBp03qzlUzCDalrkj+Jd30LqcSC1sjRTsfuhc+u\r\nvH1IBuBnf7SMUJUcoEffbmmpAPlEcLHxlUGlGnz0q1e8UFzjbEFj3JucMO4ys35F\r\nqZS4dhvCngQhRW3DaMlQLXEUL9k3kFV+BzlkPzVZEtSmk4HJujFCnZj1vMcjQBg\/\r\nBqq1HCmUB6tulnGcxUzt\/Z\/oSIgnuGyENeke077W3EyryINL7EIyD4Xp7sxLizTM\r\nFCFCjjH1AgMBAAGjggFDMIIBPzAJBgNVHRMEAjAAMBEGCWCGSAGG+EIBAQQEAwIG\r\nQDAzBglghkgBhvhCAQ0EJhYkT3BlblNTTCBHZW5lcmF0ZWQgU2VydmVyIENlcnRp\r\nZmljYXRlMB0GA1UdDgQWBBQwc1H9AL8pRlW2e5SLCfPPqtqc0DCBpQYDVR0jBIGd\r\nMIGagBRt6m6qqTcsPIktFz79Ru7DnnjtdKF+pHwwejELMAkGA1UEBhMCREUxGzAZ\r\nBgNVBAgMEkJhZGVuLVd1ZXJ0dGVtYmVyZzESMBAGA1UEBwwJU3R1dHRnYXJ0MRcw\r\nFQYDVQQKDA5OZXh0Y2xvdWQgR21iSDEhMB8GA1UEAwwYTmV4dGNsb3VkIFJvb3Qg\r\nQXV0aG9yaXR5ggIQADAOBgNVHQ8BAf8EBAMCBaAwEwYDVR0lBAwwCgYIKwYBBQUH\r\nAwEwDQYJKoZIhvcNAQELBQADggEBADZ6+HV\/+0NEH3nahTBFxO6nKyR\/VWigACH0\r\nnaV0ecTcoQwDjKDNNFr+4S1WlHdwITlnNabC7v9rZ\/6QvbkrOTuO9fOR6azp1EwW\r\n2pixWqj0Sb9\/dSIVRpSq+jpBE6JAiX44dSR7zoBxRB8DgVO2Afy0s80xEpr5JAzb\r\nNYuPS7M5UHdAv2dr16fDcDIvn+vk92KpNh1NTeZFjBbRVQ9DXrgkRGW34TK8uSLI\r\nYG6jnfJ6eJgTaO431ywWPXNg1mUMaT\/+QBOgB299QVCKQU+lcZWptQt+RdsJUm46\r\nNY\/nARy4Oi4uOe88SuWITj9KhrFmEvrUlgM8FvoXA1ldrR7KiEg=\r\n-----END CERTIFICATE-----"
}