{
    "hashes": {
        "appinfo\/app.php": "80cd1e34a685e9c72fc2c5066cb240cd2b3cf2a04565859b4d50226d3d27a86378acb460e08285ecb33c8ef3bc8831c34815b723b46657455e0a6f0b6a77bfed",
        "appinfo\/info.xml": "8f7124783c8adccd151247a90cd78ab6ef4b76e2a9e46b96aa3d1d6e5f64d597fcb619b7d17145d6e0701a5acc8f0c8dd136d46299ba2a3d14f50274a79cb3e1",
        "appinfo\/routes.php": "07b3a354cb415aea84aa336ca32d539f1daf3f71945019e1bf3e780e73efb9c376638757040c23bfffd4fa7c80249348ce13b3bf39beb9ae39cca3c37f0a4ce9",
        "composer\/autoload.php": "9997ff15ccac1ca04760c6e4302f8caa9dfc0153506b7e8128b854ac95d936e232286e64fbed84de345b2de114d0fac84bb877fa8e736024e563a03a06f945c8",
        "composer\/composer.json": "b06eafd5bdf4068c4c6643c29d3db3a254ce432063712cac6cea094df0673be8a5f2e9345e825e0aade75da196188e5d7ac7d6293255918f0f6a4a17c90a32ea",
        "composer\/composer\/ClassLoader.php": "6d630ae5c62bd43ae490e02b0e1eab6f9a4b92364b617e0dbb4404ff11bc33db238568dcc3df9d8de616f191109853bf9d9a408030f1252fa7e420e5321227af",
        "composer\/composer\/LICENSE": "f3bb64009f41a425df5a9bbab53490f0eb9b74fa8d6aaa2f57efb928edc4ffff330260666edeaa04a91fed708c3663371cf01b284f3a08d6698aaef7a23f355a",
        "composer\/composer\/autoload_classmap.php": "259607af5521d884d34a91e9860d1262857700584bffafb342ba9b42038a6b4aff583298521a644443a7fc6235c2997ad379132f3795b404d2747f7443a0f687",
        "composer\/composer\/autoload_namespaces.php": "dd8ee31d2faa9014fe567e1f954b5e7f450cf06feacbb96d4df663c59b1a36a0b7d26ad41b46354bd14f282fa7899298137208d1851099cd3ada285650efd90f",
        "composer\/composer\/autoload_psr4.php": "69e339c4c612d551fc5d5874b0da7928463f809a6da938629bd92e156f65f165d6e3495a673ce928b2e741863470adb88f977fff6ac6aae2182dbcc504ec32c0",
        "composer\/composer\/autoload_real.php": "262e0b8a8ac8a44ff02186f264e3ef06f1866630240f1f2dfbfcb5d1fc754406cc7207c3404f50241b2f53b9f83ef686e1a3f2125725fb2de0e99849d869bc8a",
        "composer\/composer\/autoload_static.php": "cdfc831e586bcbb3af223b2d4c0c3766864a5f94232f74f15ecb7e713287a60613fab86290f4071b5aa769aa3bb87f07fa38ad177d78d73b66ba286b8d8b90de",
        "css\/versions.css": "24fee5eda08412c713f6ac7d36f4469ae641d891b37d744054f2a42b7619d4fa67f475aafc1a8fa015905ecd5c4d79b8e4a065742debf3a57a8227b3e4a3d958",
        "img\/app.svg": "2a2a026e32f55d1e5c55be958e86de3a3519fa644c59b3dbd39caeb95cbd3b9bdd86d01e43f0a45b0409238f4f2f720b42c068910c42ce1cf6f8f1b1ec78df6c",
        "js\/filesplugin.js": "6d8be20f2fc96053d0032f50fe3554efea415b6479116ac14ca46223887fa533215a54eb71f99be1b19c5f71d664e19480ad38dedb6187d628f4aec5c62f7276",
        "js\/merged.json": "c7c01bdea1f7d516affbd1d5475d0a3de958690b26c4a54aac40c32a7cec1ef214517cf44acc9c4eb40e687e9815595718c603bf007d00114a292ffd1eb15bfb",
        "js\/templates.js": "02aa7f36ca91a287de02238c8186b1e959dee8219b746d2c5be65e911701f931ab1f4222eb2c54d42bc5d4881c896cae2d3a8e25ca9093f0346e16f13f29797d",
        "js\/templates\/item.handlebars": "a11824dd1396c7d680dabe81501baca9514e11c4f59361d38958919ce4e75af37c2971c25151c9a88171c4e1cca27b94f9da266027a270f71bd35f331c68d83d",
        "js\/templates\/template.handlebars": "07afeea90934093fa00a67b138d675573336ce9180b0af3c337c7a5bd27c946ba51a06f48b4ef1dfe2d5c75f2ab059098a666811490d8052b59b61293bab0905",
        "js\/versioncollection.js": "f685115966976dede0c0095ce799aef9ab985ec3e6fd3f1f5f9f03962c985bd55aaa04a611196ff74bf0f511721c1ba37a769a2dd8799f3637fc8cd20ab60b93",
        "js\/versionmodel.js": "abfa1384749a3eb4f43db1fe1a0997b42689baec565b9eb3bec62f51825480c2622527091159f2e3895f0ee4991e50632cf17718e260332b421bd66e4ce3b0fd",
        "js\/versionstabview.js": "d5709ce948ae0fcf823a6baf4919146d20bf403a40d753429903042253582bcfa18e3fd48fbefe8c3ae19a715ff961edef0145cf8edcdd508099fed297a8aa69",
        "l10n\/af.js": "82f12aa953a0607828f61594226e1b8e10c77374ef6d8340973e25b587818bbd1b903d478958b9325a5c9a37c3ba9129229f101224e7ee0becc9d58d36b71da6",
        "l10n\/af.json": "eba0b3ebc39f2cfe3b8289671e54a0462df8e75fd52a2607119b37c6307463629373d81db449415057918da432366da7ddb30c7d07813cadf2386517a0065a71",
        "l10n\/ar.js": "d4e0f0b9e3952a2f0a7ff6a3e4e930010a74738370e186c7377f93ba8aba9db97d615b2e3a8e0b2e43c8fb7d81c2c40454987d6c753307fa98961b61d39b81cc",
        "l10n\/ar.json": "0225e5c3720b79daefa52de46edfd96ce29e227cb4ef7dae1bd758357fdf83f7b24381a6117ab9b928370bbf7164739465091ab55a54bdecc2f6a76c29c82369",
        "l10n\/ast.js": "0e3d3fa6392da9797cde7747ef47e22e1fbf3b3ffaa1110e5ed79f211d8d324ea15a9640b395e347f2e951988ffb96cc1c4043e6699f06f5fbe38beda2ed6a6d",
        "l10n\/ast.json": "79478a35be3d86419ee6eb16ca0671e1cf483dc915e5c22bc13b564c72b4cc34ab760f6f78879d10b03c30bf15eb2fa7d6f8e396a97e1b0b717aedaa75aeaca2",
        "l10n\/az.js": "78d760eab58f1bb638ceca08d009cd5f8e270606e445ddf44e38b4112a481e1fcab47367bf4656d82d24854eb39960e41633f0d0d39774f23b61e9b39b41b7db",
        "l10n\/az.json": "c1043a60ca22a56b58f116f0781b96472e1f0b83dc0e379c66290edbfa61f39ae2bae9a0425b2a2612ddb31ffc94ad8ca837f7e73288d914dbe1d3ed31e0c049",
        "l10n\/bg.js": "f517415955f68d62d7fb758fef1bd3c672d26f5b60082627169b0080613140ea746625f0c2384015e56e3f49e3670a3e458fd6e9a73666bd5855726f01285c41",
        "l10n\/bg.json": "aa089f3ae116f14251ae67f9496bce1d7c35d222834f0b73f8408115c77353c381d84a3b2bf01b09b34f91a8c687da70f2e705d758f919a15cab0c1fe3476ba4",
        "l10n\/bg_BG.js": "ac2c52e73441d4160f6cb62367d52e0a05fbe6260d93312af4c0f15e0a0abc0c29d363b1f4e71d0c86fbc45b6c3a37cfed0f7833fc2b82fe002adf74a68ceb4f",
        "l10n\/bg_BG.json": "f8f1747ba16427d1c6418dd4e137e2cd693779b6a4b6e092a2d260d9d63582c572a31d1181db9c088f3badc273b7cda5d46a615f155353528998b980f7799bf4",
        "l10n\/bn_BD.js": "9eaeda1af1aa9bda7e7713c5706428feb1f80bc698b8d9be6006f0bbd05fe5e54221c7c18e27b56480d00e2442869e2e40fe5c2369586a81f62bbdd0665f0990",
        "l10n\/bn_BD.json": "b1154866669d27dbabb87ef4199690042c9cbc3ee763d9ad154e81e6b3e65474ca28d5e174a434e9d882df8569358ea40b44192ce76028adf80bd11fd2cff455",
        "l10n\/bn_IN.js": "09f151844fa6651b8b63ecbdfb7ba9d6e181d4b39f8e24995be953e2062a464fcce7c2ff4818b2456528c932ded60274bee55f6f7e97c69700f658262227681d",
        "l10n\/bn_IN.json": "35fa51f16d8441ea34603f14592b6889ba86afdf7804b3218dcd8df8ab4f427a5e982ace39de6ceccd98a481a015005bf34f8535f7d507f7b7b28915ad643c85",
        "l10n\/bs.js": "5de6c7b06c2ac219b5436169090362a24b9ae430790eb359dc9b2d4b99ca9320225b3ef4f9a426272c6ee8cd89890c1f240ceb65efdc884b91c371561f48ba05",
        "l10n\/bs.json": "8ca71bcf46dd585de4cfbdca8e3418a0c4b018319f52e3a68e118bca6fb7635b36aa77d0e0ad366815756d293be1e287360ffe2c9326b4425833c66783d67d03",
        "l10n\/ca.js": "c9482b50ac6009588f0289fa50f248e118adaaee7a0cd31427d74d94994f066c40821a7e426e77aee4569a0e252172075dc133f13c631ea2b12e11e719c7546c",
        "l10n\/ca.json": "9c64c5ae7acac560bf90443c44e3bcf0014468f1860f1fc28743d602c84fd08a77a50e9306371bbe2341f434ae848cebf8813618bec191f90e11c260cc3e8921",
        "l10n\/cs.js": "8752f474f38c47d0b241fc4c1553f28c0a1e175c81ddd94f7fc8bc7be1719e91cf95326a0b451a0f35165e4ed18bb57fa20ac7e7e8da285a9f093230e14eec61",
        "l10n\/cs.json": "7d06165312e74d894e11432103e66be80965c0820fd09c93557001fbe428542c64ca89cc9f6824df92e21cfca6d0b94a1e001fa0f815273d444f0d652f774e31",
        "l10n\/cs_CZ.js": "e0b39cc8c80ed00a75350ddd80c45ab56e85e7138c1a7c28bde7d08a7db8bf375ee2419407eeb78b4e839d1e69140a1e2ebfe560ddef8361edeea2a4002d240a",
        "l10n\/cs_CZ.json": "bb4db3d8e27a35a97a686c8e36492f79f4205cccc383688a7936553aa4e5c224b31110cf6fa8034dad1492eb1a7eae93df0a1af8cf572953be91ca4f1da5a9d7",
        "l10n\/cy_GB.js": "02f88055db023f005bbecf95686438dd30491d4e3040bbcb925737cdc30e31e815b850d8ec7d350fc6294288e504d507119fb36a9f9dc4903e6b0e8fa099e5db",
        "l10n\/cy_GB.json": "5deb2e052eb54705245afa1f718747f25f79d6e6a69512f94bee36d7baf8fdf16cdeff58501bb264dfb0cba8a8eac9675dbd36d9b0d427c1329cc06a66f8a02b",
        "l10n\/da.js": "74b1186fb4425d61c11c9a447b0cebe3393860b2eec7a12cfea7d80b766d233a81d34e321a6d4d3c8260008611d2704a03b15160f85aae25321e42def057b67b",
        "l10n\/da.json": "bca99570fc8dc449067dcb8541fb12da68c30bc52b4093dfe2717fa3cd072ac118675e1b6096be510a689b843d1fbc36c21b0eec49ab62b527600224593153a0",
        "l10n\/de.js": "a5b65f9c91abb47030351127e1de859a518c93694478f47ba91df08fb64165000e2d3dc2daa0a4008e3c244be1b62ecd659f93232b8215083fb911bbdaf080bd",
        "l10n\/de.json": "19bd216221ef0389c22a453c959a16e24a1d4b70cdd8b306a25517aa8aae84790e030f9dc43fe826daf0eccebbea0273ee4b586e553d38ea06a14b24d18757c4",
        "l10n\/de_DE.js": "d3452cfa2cea6e2d696a522f0e780af9959f8d72aac2ca24a69b7e3023270c9e48e1ab9f1126a4a1d2413e180f5c725c37acefc42b307eb39d82ff479aa46fdd",
        "l10n\/de_DE.json": "018d1939ee0e9d9c17692a9ac946553185178ab3cf08b32692e1f43d8c6cb358def82af5eab82d44c2a2f6fdba1a5a8bcc3370ad08fa96161e7997fc054b508a",
        "l10n\/el.js": "58ea9fbfd82089df1bef5cf399ff3c3c5d371fef323567457e95de3e56206750a67bffffff6b1f82bc1c2a36c90e86cf3cb9fad01613e01459e0a46d10f410b2",
        "l10n\/el.json": "19bb1df83660e0de2b31838f9d2b531f5b62e8009c8f1ddad0507ba7dba343f4e31d7982793c1f7025d9cdb28c758dd3e518042569951f6da432fd0ac8e7d8b2",
        "l10n\/en_GB.js": "d2a643444a79c5d727ed7f9941c47ae73d1c6627f68aca1fd01b983deb43b1503c494acfea370e739f49ee7f5a8727b98057f079b181a6644b209b346bb37a6d",
        "l10n\/en_GB.json": "0d32ce1c2812b6810ee6b5284e73354663fd074bd975fbd934aa97ecd9034bbcc10619e49b71dfe08db987dbbe67891717dccf5689591012471736384b773f8b",
        "l10n\/eo.js": "a514cbd33058d4b9579e8541862100ac26910f7e06c5ef5c37de2b8b3e8c366b7b8e5025c21fbc0da3e596751d557940565b9246f2948906d223e8a900f99a94",
        "l10n\/eo.json": "88096f9ce7ca9680fe322c36911f09d0a426dd3805098cdb3432e38bdfbc3393f4cde59a8882140645f5311fc9476c8be913b9c2e8a5df39443dbb621746f6d7",
        "l10n\/es.js": "ebb37739a5257c7ac7e90e9b779d891eab13e95ef6b6e6d1528776a93303eaca4ab7e571f19abfd7246bda7d5ef4d9dac648344e73fa2d352192707c0cd3924b",
        "l10n\/es.json": "8e8f7c50e43a594af3cbcebfa8dccb233f1942f85b0c5fc29b976f4844d3910c73080fe25a691d87c7d74cf85fdf316dde2e4bbdb6d0d1974cd756dfc8d3d5cc",
        "l10n\/es_419.js": "e96823f5d6aa9cedfcd040c72aa576c2dbe29806454bee411056f8f82a6fb80342bd55665a02ebb5dfc242fb64beac3ff9671c70a0c610ca062b315a896d1576",
        "l10n\/es_419.json": "9c0819116a9c92b4b2c9e26c98196f92d0d9f29a573c0f9b628aff5838c703ad8942d32b701821c95bbb60312dd423a6c3d3a2e60cb8687634585cb4e9f500fb",
        "l10n\/es_AR.js": "97199e0db0613f3e86fa94911115c9dd3d07902474fc8a724dd6b29e380ff480f56fa80785e6bfcf321d2df3e891e99c0939d013bb881d921fbaf6a797399f12",
        "l10n\/es_AR.json": "d5a01ec0a1a1934ee6464f430d17cf934692962892e022752afac175fe71d1fa17ac27b70dfec7adb58fd55b6237d2be15a681c6e5cd2b7dfbdd48dcbdf4d16e",
        "l10n\/es_CL.js": "e96823f5d6aa9cedfcd040c72aa576c2dbe29806454bee411056f8f82a6fb80342bd55665a02ebb5dfc242fb64beac3ff9671c70a0c610ca062b315a896d1576",
        "l10n\/es_CL.json": "9c0819116a9c92b4b2c9e26c98196f92d0d9f29a573c0f9b628aff5838c703ad8942d32b701821c95bbb60312dd423a6c3d3a2e60cb8687634585cb4e9f500fb",
        "l10n\/es_CO.js": "e96823f5d6aa9cedfcd040c72aa576c2dbe29806454bee411056f8f82a6fb80342bd55665a02ebb5dfc242fb64beac3ff9671c70a0c610ca062b315a896d1576",
        "l10n\/es_CO.json": "9c0819116a9c92b4b2c9e26c98196f92d0d9f29a573c0f9b628aff5838c703ad8942d32b701821c95bbb60312dd423a6c3d3a2e60cb8687634585cb4e9f500fb",
        "l10n\/es_CR.js": "e96823f5d6aa9cedfcd040c72aa576c2dbe29806454bee411056f8f82a6fb80342bd55665a02ebb5dfc242fb64beac3ff9671c70a0c610ca062b315a896d1576",
        "l10n\/es_CR.json": "9c0819116a9c92b4b2c9e26c98196f92d0d9f29a573c0f9b628aff5838c703ad8942d32b701821c95bbb60312dd423a6c3d3a2e60cb8687634585cb4e9f500fb",
        "l10n\/es_DO.js": "e96823f5d6aa9cedfcd040c72aa576c2dbe29806454bee411056f8f82a6fb80342bd55665a02ebb5dfc242fb64beac3ff9671c70a0c610ca062b315a896d1576",
        "l10n\/es_DO.json": "9c0819116a9c92b4b2c9e26c98196f92d0d9f29a573c0f9b628aff5838c703ad8942d32b701821c95bbb60312dd423a6c3d3a2e60cb8687634585cb4e9f500fb",
        "l10n\/es_EC.js": "e96823f5d6aa9cedfcd040c72aa576c2dbe29806454bee411056f8f82a6fb80342bd55665a02ebb5dfc242fb64beac3ff9671c70a0c610ca062b315a896d1576",
        "l10n\/es_EC.json": "9c0819116a9c92b4b2c9e26c98196f92d0d9f29a573c0f9b628aff5838c703ad8942d32b701821c95bbb60312dd423a6c3d3a2e60cb8687634585cb4e9f500fb",
        "l10n\/es_GT.js": "e96823f5d6aa9cedfcd040c72aa576c2dbe29806454bee411056f8f82a6fb80342bd55665a02ebb5dfc242fb64beac3ff9671c70a0c610ca062b315a896d1576",
        "l10n\/es_GT.json": "9c0819116a9c92b4b2c9e26c98196f92d0d9f29a573c0f9b628aff5838c703ad8942d32b701821c95bbb60312dd423a6c3d3a2e60cb8687634585cb4e9f500fb",
        "l10n\/es_HN.js": "e96823f5d6aa9cedfcd040c72aa576c2dbe29806454bee411056f8f82a6fb80342bd55665a02ebb5dfc242fb64beac3ff9671c70a0c610ca062b315a896d1576",
        "l10n\/es_HN.json": "9c0819116a9c92b4b2c9e26c98196f92d0d9f29a573c0f9b628aff5838c703ad8942d32b701821c95bbb60312dd423a6c3d3a2e60cb8687634585cb4e9f500fb",
        "l10n\/es_MX.js": "e96823f5d6aa9cedfcd040c72aa576c2dbe29806454bee411056f8f82a6fb80342bd55665a02ebb5dfc242fb64beac3ff9671c70a0c610ca062b315a896d1576",
        "l10n\/es_MX.json": "9c0819116a9c92b4b2c9e26c98196f92d0d9f29a573c0f9b628aff5838c703ad8942d32b701821c95bbb60312dd423a6c3d3a2e60cb8687634585cb4e9f500fb",
        "l10n\/es_NI.js": "e96823f5d6aa9cedfcd040c72aa576c2dbe29806454bee411056f8f82a6fb80342bd55665a02ebb5dfc242fb64beac3ff9671c70a0c610ca062b315a896d1576",
        "l10n\/es_NI.json": "9c0819116a9c92b4b2c9e26c98196f92d0d9f29a573c0f9b628aff5838c703ad8942d32b701821c95bbb60312dd423a6c3d3a2e60cb8687634585cb4e9f500fb",
        "l10n\/es_PA.js": "e96823f5d6aa9cedfcd040c72aa576c2dbe29806454bee411056f8f82a6fb80342bd55665a02ebb5dfc242fb64beac3ff9671c70a0c610ca062b315a896d1576",
        "l10n\/es_PA.json": "9c0819116a9c92b4b2c9e26c98196f92d0d9f29a573c0f9b628aff5838c703ad8942d32b701821c95bbb60312dd423a6c3d3a2e60cb8687634585cb4e9f500fb",
        "l10n\/es_PE.js": "e96823f5d6aa9cedfcd040c72aa576c2dbe29806454bee411056f8f82a6fb80342bd55665a02ebb5dfc242fb64beac3ff9671c70a0c610ca062b315a896d1576",
        "l10n\/es_PE.json": "9c0819116a9c92b4b2c9e26c98196f92d0d9f29a573c0f9b628aff5838c703ad8942d32b701821c95bbb60312dd423a6c3d3a2e60cb8687634585cb4e9f500fb",
        "l10n\/es_PR.js": "e96823f5d6aa9cedfcd040c72aa576c2dbe29806454bee411056f8f82a6fb80342bd55665a02ebb5dfc242fb64beac3ff9671c70a0c610ca062b315a896d1576",
        "l10n\/es_PR.json": "9c0819116a9c92b4b2c9e26c98196f92d0d9f29a573c0f9b628aff5838c703ad8942d32b701821c95bbb60312dd423a6c3d3a2e60cb8687634585cb4e9f500fb",
        "l10n\/es_PY.js": "e96823f5d6aa9cedfcd040c72aa576c2dbe29806454bee411056f8f82a6fb80342bd55665a02ebb5dfc242fb64beac3ff9671c70a0c610ca062b315a896d1576",
        "l10n\/es_PY.json": "9c0819116a9c92b4b2c9e26c98196f92d0d9f29a573c0f9b628aff5838c703ad8942d32b701821c95bbb60312dd423a6c3d3a2e60cb8687634585cb4e9f500fb",
        "l10n\/es_SV.js": "e96823f5d6aa9cedfcd040c72aa576c2dbe29806454bee411056f8f82a6fb80342bd55665a02ebb5dfc242fb64beac3ff9671c70a0c610ca062b315a896d1576",
        "l10n\/es_SV.json": "9c0819116a9c92b4b2c9e26c98196f92d0d9f29a573c0f9b628aff5838c703ad8942d32b701821c95bbb60312dd423a6c3d3a2e60cb8687634585cb4e9f500fb",
        "l10n\/es_UY.js": "e96823f5d6aa9cedfcd040c72aa576c2dbe29806454bee411056f8f82a6fb80342bd55665a02ebb5dfc242fb64beac3ff9671c70a0c610ca062b315a896d1576",
        "l10n\/es_UY.json": "9c0819116a9c92b4b2c9e26c98196f92d0d9f29a573c0f9b628aff5838c703ad8942d32b701821c95bbb60312dd423a6c3d3a2e60cb8687634585cb4e9f500fb",
        "l10n\/et_EE.js": "55dcd6c19bbbe8611072fd6cb3191f3eb3c9f2dd725ea3bd0554cfa7afaa46c91b9e42709952b9452bd5418eb73f44cc5605cff9b934ccd3c66b19ff3401c7a6",
        "l10n\/et_EE.json": "2c75fa7e32408d4d7e1fd635da8d47045e59c76a5960e8b6619421a18eb74d400a8ca4bbaa7195889c69cea851a1aaf209fd2bb3546f28cacf6c00f7b7a8ec11",
        "l10n\/eu.js": "039859809bcf12cf76dcbf4e9aaf752238c3d2aaa223243338f6db09c68f215711ba6137e59120bd36f7206f90f1c1f5a400ba73170d4a0affaaa7637719bf73",
        "l10n\/eu.json": "c2eb329117f68f0867cad0b2d100afbba29126e8674f76a2085195327384d5c1991b9f236f215a7f2cc58bae327e1e7c8131a7c31fa1a08b0adbe4d35d7b138e",
        "l10n\/fa.js": "e6e47196927fc82788c1451eea9cb9b2a30bb84cc89a5f9e68d2a0a8ee5b666de26c69f74883eba71c183a15b42cbd4937120940b377ab1ff9bc3149d797a9ce",
        "l10n\/fa.json": "307bdd585c8fbd51f46e6d329f1d291e687c82afa21aab209247613333123560076360668e59a72e86a5dfd99291b9e9d7fb7e46e57e2c50a646f73b3e95a3a9",
        "l10n\/fi.js": "411c1c297d38ccd68766d43de95aa19467597da59f9bad65531354e88b9b5cdec87fa1b746a0e3d87ddaa591067573d64dbdb6d23ca8594c3562470cb3a27697",
        "l10n\/fi.json": "8fa4c842660c20700c15783c4e61715bdee843eda306249a6fcbae6b9104d7687e512e3d003133e6d988c16d814d0821eb31d7034ff6463bb989605afe75c6a1",
        "l10n\/fi_FI.js": "29f2e631e43d3cf19cd8562b159c579c41fc7960ea7ec86ce1b3885a388b54313bfd20f971f31338f7d37b3aaef3a7d9a1c01e825961f7d8136a0850cf86cf67",
        "l10n\/fi_FI.json": "fb922179ad966e03a6f83e6e5eaa3fa3db81f48ddb3215420de1546960947a8ac496a8b1fc6dc24b20cfa800279faa50174a65bd9d3f6406f5403e192c62fd36",
        "l10n\/fr.js": "15a414ad516e87650e7efeebc16a2b7c8064a853aac2efe1148dee565442fcb7f0e3f0e36ccfa62489f17d4729f8efc64854ce7efd6ee5c8837c1622343e54c1",
        "l10n\/fr.json": "0ee59db825acb0c499ea031fd91d5cdc1e13796ab35ae6f7284a449815ba4381ce8b6d387ce4ffb999838d23bbea18eecad50d66c5082462afebb018fb63550b",
        "l10n\/gl.js": "ffa2833c5e4a89b9cef3ba1b579a9c60f8e71f275ef393361adb8ae3f3c8decfa87892641d7d8fb6600df879911c090a0a5c175addf6a1537362c6c32936ec71",
        "l10n\/gl.json": "52dbcee6cec9a9cd79af4ec39196b62d9d08d1653f167c889aeeeca3aff21513b57d7c865e725842d887f831689246303154f98049317c058311333210be9c4a",
        "l10n\/he.js": "13016c0adf14a33aa65b361d7168805a39dce5eef05ba846a630684b178cb8456dee1c406e59331d3b541fb4b95bc347e7f35f1a69fb1b66da28563db1361657",
        "l10n\/he.json": "85111a0f638b07c9369de6d6be8d52bba032ff08bd245a5a5c484249843c423f00ed6e53db0e140182c768d2974dbdf35635ed48aee57f56535a1b847387b071",
        "l10n\/hr.js": "d17dc600301ed81a4fa6bc6e33da89c120d06b8b7aed60b99ded0b06519463fdd9c32c63cb9570c5e285734f04d57fb1c5edf3c52b4d095aaad673afa0b575b9",
        "l10n\/hr.json": "1c849610f5427867bfc7ee39f9e34309e7684564a5c825ef808fbf7dd1c703903e8b61c1c39c19e593e99b80e719be7844ff48b484429a8b50771fb3a22d9f39",
        "l10n\/hu.js": "da0590643a24d7b72b06f3e1bb7c01d1d08d6dade27695328baaff05ae927ee19b4d34aa586677873e5b6d6279b7a7b174b3dc5b1050f46bbc7c88d0516eb520",
        "l10n\/hu.json": "8625a13a8bb0d85776c901e6be82c1e54756adb832c512029f6e5173c3f8751afd9db1400d5aa5296c7e7f983500bc799290bfd1688bdb0f9346c0032f6f59e4",
        "l10n\/hu_HU.js": "73c8084f104db74abbc31febf59d53ef27ab1c0ff7336279f34e993ab0f970922f1299615a548be4a8456b9baf92d36891613d6488a5bff4c2954335f789c8e9",
        "l10n\/hu_HU.json": "59eedd8a1b0068789595d985974841b8094efe704f1d0c248cfb300cdbdf392335e87741c8d1967d48fcba024a256aa192cc7323ed700738e8ab2909a75a424e",
        "l10n\/hy.js": "909de656c1654a1898fdf03aa59267ee72239326c3ebd88bb856ce2d4a2bfac50a530805cc11b3574a3656001950a379aa10a381b5389fcdc339746754bc56e8",
        "l10n\/hy.json": "6d16d33b880635731c3797fb6c84392dde59ed0037c1e80f9a96f5cb9b32c6063d3987156efcdcbc540925dac7ea86fab22598e43518bdaf446ad8eb029befc0",
        "l10n\/ia.js": "53feb3d8d60cb4ab929ad26141c344d59cc371394171abaefff86a9f7d7b94fae4d4cb2e1648cc80fccb9be903edd41ea944f7c50077abeb39976abd2ce69e60",
        "l10n\/ia.json": "97a150dd7e19b9d0d60c160197495a7787500a167572a55ee1cf2974b2bc40bc999e161b5c3d3c51a0f8b615fb0976bfd4ac9765302859f352ede2a2ca43a7f7",
        "l10n\/id.js": "cd3183ff20d2057f848c5839b4a60fa40d26fce3abcfe0d503145ecf2cb453b842c14c4919e366762aa09286168f4202af75d34dd37c13b7f4754a2f0d42b9cf",
        "l10n\/id.json": "6905084fbbb726e90f8da663a277d3ab1fd5885e6393d616ac063f5d6ebbe9459d5da91c797eee31989c703cb8d74f4b5d17029e539caca1a894c5f6e22a245a",
        "l10n\/is.js": "8320031cab97c06fdf083edbb0d4787bb8697840ad1ef961d5a19500b1fcab061ad10202c18f67a32b1a998bd7fd6cebd5aeb1448000f52078a4f9f456a25894",
        "l10n\/is.json": "b07abc34c7929c5841d5122ce4c3b129abbb73b4d9f0e3db89a7d604b641d17fb3849f3d754551bc1adcfb1c9561bf96d2e2aad9d3b0a9d60d5bb9907e7e1b04",
        "l10n\/it.js": "9c34171da2eb212095e63f32acdb885f6f8160b064d63f3734afd4446f32b9d9912a3ed94e0d671dd2b48205904ef13fa9e4debfa03a1b04df5885bfb4a0068a",
        "l10n\/it.json": "f7a65aa9b74bbe41529a9b688654e28529c5de8e91a089096227c4de109d82deb4b5931bed39587e6802cf0fe7fb57358d15561ce2c0efea328296f1f4aede41",
        "l10n\/ja.js": "30895e29806be5ca8ebc1241221be7cf6e2d7ab8362cd267d509a1ec574c245aaf151b840d89eba01f0161130fdef8bf14c37f919f47c67da9809b389e5535da",
        "l10n\/ja.json": "67360189411c4fabcb6c7f51baa234355fc2383afe0cc7dd2113ef6feb30c58ccf1ab2579b34444bfaa869f9d608332f7da09fe3fdb247fdc314cfaa6f7cde1e",
        "l10n\/ka_GE.js": "babd787e76c540f21109463c72a12384123ddbfe5ac8d18043ecedc06d2330695b6777b74bcf51e7ab32f7813052ac523896af1e9cbe8a415759813085ba4ef0",
        "l10n\/ka_GE.json": "7973aa0753e36e6612e2ac04c5aa42f01da1172edbed29685a0394f4879b36962caec07fc48cf30295de1c25dcb13ff20efd2e86502ded4571ff1e708556a2c7",
        "l10n\/km.js": "829d6670587eacab19527ddc03397c07d983584d2733bb2b63fc53c63422905d4d3e24fea17d5437a82c17b7f03d74ae2e7a26b80c500ce1d848d430fabdcb3d",
        "l10n\/km.json": "9b868af08da35186d89965b1d90e10ecfe5d358864c7f913a41544e612296e8ea548621426489af56ab21e2f40c6f3ce7af5ae9279fd7a58efe64d1021c22cc9",
        "l10n\/kn.js": "77d59ed666bcd952157dd695aee6001e5cb8689ceb64ee037d506eb8a1884094ddc7964b25c8edcb12a7ce6cca9c5837cf48a3d908527fb31edc8afefe5a2ff9",
        "l10n\/kn.json": "698920540455bf326ce071a3c2ad783fa484313ac4f32bd6e6afe62b63a431fcb34eb7eb1028ea9df71bd69a9d1c4f80f13c40a5a439e01319074cc7a6fc5f74",
        "l10n\/ko.js": "e55e98d5c68be592fed0b7742e2dcc2efc1fb95e81e597b17838afb5133fe9c319d8a4282b5aac9c90fe988121692544b63f2c9c423c8e4c8a3fec4a08348d05",
        "l10n\/ko.json": "14050c4e05ea3c9956aa0f4395b555b20196939f5913bd4a12aa71e5cbdb3d4d4d947572a06d2ff46157f76e18fb3fb3a870ca9185cb96a51ac50259143a034b",
        "l10n\/ku_IQ.js": "6717244300c031f23f633908475c64f834d5f1ec8d9e76d52fdae66ae7ecbf1b79a7ee2125fe90e3b3c7614f65d1ecd931a6d79613647269f62b0324765d0fba",
        "l10n\/ku_IQ.json": "b99f8c54034b84059a087b35a8430f5d289dab211ce04e2cc33997fe09687b3c9d471635814393b6f5e7346b2c45048ee3ede340caa1837acd7d1309309092c3",
        "l10n\/lb.js": "83f901a4e036ef8ac896d0a8c81cbfb39f1663fe51fd1eae8464b9e032b6960c3b93080fe8069ceefa473bf94c65bd9ac9ed4eeab22f5b6bec38c8bcce30c01e",
        "l10n\/lb.json": "5b667c35476a5b563affaa7d378e4d343b5d17b7689745ffed4ec602c9d418e3613475e167f95657faf841744be53f847135020da48ed99dee6fa1517a407aa0",
        "l10n\/lt_LT.js": "948b5f2117dfee17bfa1b967f1fd48ed79812690a05c9aac1044646e080bd344d199d0c9c0e7257a5ef481d451f30bcf6e7c52eae1fbac2403196db64f7703ea",
        "l10n\/lt_LT.json": "a0165205e471252cf751489cf20cd69e7b65018930796060213331f43b090b71c6d5f448981c539e722fd95afbb4af330a6a07c73a58d48fe8296d62e3a4f7fa",
        "l10n\/lv.js": "003ef06d9fb681f47b1efc34324459b4cefac32882c8129fe5f3768b8db1372075603ddd6b2c694993954ae42b6db41e70adbc9cb8c0da6cd348a96a9bfc0329",
        "l10n\/lv.json": "6fbb1ec99831ae0b6d97a04b12736e682dea4bcb14752d069161237ef5301f46989b0d9cae6a2ed25f208445c767c72f5687278ce605f540ec3413ae5c7d0b25",
        "l10n\/mk.js": "049c48a476c42a04b2690673cab82b007303baff9701d5acd87d30c6129aa1334f3954373033ffb03c96352b99b3ab95c1efb2affdf13164fb4486c174c541a2",
        "l10n\/mk.json": "d8356c593750e3bc3a2baf75b0e69513091ed796bd9967deb7e9058eb6dfbbb409fe44fe048525e8b0f445058c9adfa66ca92a9482b60a8c3b1939f618ed5102",
        "l10n\/ms_MY.js": "f8d02cbd6f6e806199e832c7d95104d08c3b85bcec7c9587d14983dbbcfc04ca1ebcce70c9f70490c098b0a3cd3a2f5ac898b1cf9996cbcf84f68ab0a006e098",
        "l10n\/ms_MY.json": "288ddcea29d5910d1cb0b85e9b69aca102f8ae8862ebf974d0c43720988041a812ca4909192b4fbecfe55d80ee93849c050063bb5ff09dec7ad6de6ccb081512",
        "l10n\/nb.js": "41dde2f2c8f0a953e254517f5435720f63363e1173b6a350f849d58f5cf094591092f98dc1db57d486f1014fd5103914802cb1b8e71debe223ea104bf9d33a57",
        "l10n\/nb.json": "0b1feeca69fcc2444a7ad7ce9d4ba2f5375825994c70a13ea1eb42ae46f2e6c1c8678eff81b108e4cf5d7f283a53555f824ef0534e7a8d4d4a987153e2461c88",
        "l10n\/nb_NO.js": "5c61aaa5b0201958454fe77ea6245bfb85ae6acbce0b5f8945919184a28ace544319a3b7a8984baf894454e6785ac7bfd220ead7afe7bd5d811f78ae99c46da4",
        "l10n\/nb_NO.json": "6480e7ed1cd54da52b979c09d9197df70280af20b8b83ce43042bc0f2f96e1f57a940113bb6504683949b6611f733d9b8779caee70d7e22205e6ea0de8858e12",
        "l10n\/nl.js": "4b7d802f0377603206a5ca460d7c22a1fb92fed18a4555ffe075d8bafb908581de40b464d91ee5d7fece4eb393fe4b81b67689cb258e13ab4fc10a71935e2257",
        "l10n\/nl.json": "add89e27e11dda9d5f40039a11bdc49b63645ab26f21b3f1e2cf6599d62c6bcad5fc41ec848bcf9fd83aac9de2e3412ecb75a292b48d55707ea0522dd9fa4597",
        "l10n\/nn_NO.js": "41acefde52cb0cd630c0a21f2e8dd57242aa55826ad60089a1d4ec5ebf119cd83fb368bcaf97e476dce7d68e4bf959525fb2b875a3a5475f781d5bafbb157d4d",
        "l10n\/nn_NO.json": "aa6b37bcb96cacbd7dc09b18292bca2434b09e9bdefb795b8ce2fc899b05b42790ea6adb5dc022c111b6d4e667327bb68ddd629d018d08417e24aa02d69595d9",
        "l10n\/oc.js": "5b302270d3f2eb6ea458c67a85b136687aec5d38865f679fe48d7b4ebaca51a844cb9e4cdff2882b57e6e3f5079e5ef82207e5d80af1fa0bc2b600c3c2a92470",
        "l10n\/oc.json": "0db5ad5bcc607f3559ce152bd184d1d323a6ab74688f59239fb2195bd26e0a61b6a735f48b1cdb04db8b75effe5df503d45654d75810fcb3537b443c256fb160",
        "l10n\/pl.js": "69d2cddf7a6298a7492857a60cea5473b197e29d6e2b10da7635ef5bd383a22f57017aaf116fa1ecc3d7f3e18be3d71804aebf8b56b7a429a6c0cf57972ebf77",
        "l10n\/pl.json": "a3ec99008a9a8ad0f10c16284db0d90c15aeb49720c1238c953bd16947ea443243146e266244f8da48387db3458500ea2c86569a88a2f0126bc8bfb2ae87926b",
        "l10n\/pt_BR.js": "0fcf45707046fd52cb4bb1db4b55c6ff0d593619e0fa4f047d7f8aefd23bef2764f743e9a9407190987705738dce1f9261a5541d3a9b261f3e8e7d3660d5a7e0",
        "l10n\/pt_BR.json": "ba9f230876907156ec67901e002c0530266a1dd372362e55c0adedded41d83e8efb6d5242cc385094f47c343b2c5419a714cd92b4a41d5e3139bc1fc889b0a07",
        "l10n\/pt_PT.js": "1302c3c5b37777e726950836143283812dd91733e518298716cb60dce8dd41c0ecfd8e55d8095d97ca09db0ea2eb0ec409dadbedcf7a43d0315f6e6057c10fab",
        "l10n\/pt_PT.json": "3a0bf4842763b720b5381928ee61c261e63a6b94bef8771f8ef881449c8b2df460c4bc46d0bba3e13984ac518e8eb8c8f92654ca47f1ee818f353e21af003ab5",
        "l10n\/ro.js": "81df46c9e5749a0ad68d376f65b870d81433ba18f617b76a26ef4babfab220d44e05cd42cd4fea6a87d5aee5ef0c2ae93ff867a59b86112299377138a67ec399",
        "l10n\/ro.json": "d84be3b2d88781e8e9438d80a36d815c521992c77d9b799cc618f40af72ed68ec701f35fd5ba93b583363153260fb60ee93de725ab2011cab17c27a4c61bb7a9",
        "l10n\/ru.js": "f4569dde4178d10e58a7c033481b2656703bab7d2631308713bc1882935f92910451a3155442409668bcc760dd1e9304fe4d9b4fc8b7d8078d5bba8201c5b7c4",
        "l10n\/ru.json": "c180f82dc6d3db462ea120f44eece716164ca73c76049fbc54a13c4b5679ba5ac4c99e8bfa51132ede5a040b9b4df64e7236750a0437418abeaf6cc2c031db15",
        "l10n\/si_LK.js": "5dd90a6a3cf24d23f5932206df3d7ef0bb136342e57d7bd956490db36b1a05e69e1945cb6f81dd21dd12ff4cd858e0af795830a17421623d08a1942daa1cfeb2",
        "l10n\/si_LK.json": "750e0a8af5d684120ecb84f3bbc896f97a86188634b3351543df15f15e9d49610211540ba37f5cafd41d965b797b81a9b46212975ee2a6d7a892e3a16f32ea7c",
        "l10n\/sk.js": "c02adae3cb7096275672ad05a14c091bca907156aae3a2fd9815e43962c0cb485fe5cedaa137ccbf0087005b543126f73dd5100183975d96c7bfb80b12fecee9",
        "l10n\/sk.json": "b3f3b0e7c652d45bf581be388b2884e24cb8a315c6cb21021f7eee29f6c2e10cca015f7c92a8075a8ab3bbdae9b2e8f1ac46ae361999bbd67135cc171ef80433",
        "l10n\/sk_SK.js": "11a1c8face63c1dac69501eb4b521a6a238b6df42c36726a2bf5a6fbf78d99802694707e6c200ddf3836c3642e04cb58d1637a4539256e9dc71facf832121de2",
        "l10n\/sk_SK.json": "3d7cf3cdad22364138690ed24ca57ea8383ee61cf65b00863386264ca5d86b729269addb042adbd81f552634c406a7dd3d2b525f1047fab259c73a8cfed6967d",
        "l10n\/sl.js": "fa38e99f16dcb1df96f14b5fcb4c1f5b86ce11601ca87fe927b08971df74901671c04bab67cd6658b07b5ce2515099c8dd9f21b5bd6ffdf9d8087019b8aaf80d",
        "l10n\/sl.json": "7d486915557298314e6d73643839bc171fc506ae8bf60f8e7636c8e3337d3d7b07ac4e78d6242f731b0a56b4e718fb209d8cf4f6dbaa43dbbd9c5a9e2493762d",
        "l10n\/sq.js": "2c0c5e95db82355357101c4a4f9081f5e27702856a6813e073527c6f27d6c403ff789a1c2ec80a8af30621230fab0db00e9277959f982dbbae967ad5a3ab08f0",
        "l10n\/sq.json": "ddc01dfe67f3c4ab6905bcc031f6b18a44c34e88a686e008132322fc9dea472f4b25843c00100a1a496e8dd9736ce69bbbcf428c66425a7e34188394a43b1334",
        "l10n\/sr.js": "1149ef771193ef7fa952ddb7d62b063bba6fcc03a438c0dfe17109efc4c07cf0da9abab731870738282cdeaa257d793343ab44758add4fa2006001d0281eb427",
        "l10n\/sr.json": "44760c23d474de71c471e159b1cdbacd0b84b1a150ac31fd10f9694d8045a70553b07a35610e61cb9883cbe215389fea6a7c1c986437dcfd546f926288b1199b",
        "l10n\/sr@latin.js": "83d50011e8cf0e5c934e5fbe09968e84ec22d08c2dcfac27fc017f739d276e9ab4be72a9682d07af1821d1683c658ab68496d1ad1007d4b2cb50e9ef0eb496b6",
        "l10n\/sr@latin.json": "ca435c043cf75d55b8adcad0d6bd49c910bb2f1fa028d2b2563aecc4403d508e0a685db98760017b0dd0079c46e287ddf3e1150b994a6ee18c98164bbdaeab3c",
        "l10n\/sv.js": "4ca543fa9b4a4076becf83ffe4f42e2bd56dd977e842f7308a5b01c9aeb4d076245f9c2648846fc13317c6cecfe54ce95d72a099d252fb533b1989d26d991cb7",
        "l10n\/sv.json": "bbd237452b93d844cde28ef8a5af13c9998124f2af7791ee7ccf5c3e347f080b92cd8e07235b0629c459f42622d602e98b811f8133c63845ed1e831e4c6a9686",
        "l10n\/ta_LK.js": "3bebf7de37b91704b77c9ed1f0213eb33d3be0d4bac5a1410b8bcecf0e6c5c73e99b21214c8110b3f74981760aabe3baf6f3cd9c3da2cbb0e952a48719803caf",
        "l10n\/ta_LK.json": "27d83d0472da319e885023384db22ed493668b3d7d0fa3651b5a9c8eefe9b94c250c76b5ab321d23e405a48f485684040081dc1b5e2c22646821a3d344389195",
        "l10n\/th.js": "24525bc514f73fcce4915f6234f56d76f0c7c24cb05a36d87b225807ccaa83dda8d7293df86fc1892ee7fdac977d998d548f9056c3b89b1b0fe859d697c67cbc",
        "l10n\/th.json": "04649020a694afe12ddf22ebc08b7b27d9ee94d802a6ecc1c4ccd407667037187482b5204ae0b0879bbf7be13516bc94cefd94daa50a9cc7d98fb6724b8a5b30",
        "l10n\/th_TH.js": "7c2b97769ff2b20e7f63915e2e507a176564448579fab4b42648360dda712b70326a45479747bb195a763185e30b56b752e1c5b7ff91cb08862e57cb7d7128aa",
        "l10n\/th_TH.json": "bf7ef2bb09dc4c9523c2e76adcc356c71925a5a7b7fec9d5257d3b585e17dcc995f2039ca88016602053836c951142535d0cd0221346d581ea7194a278311731",
        "l10n\/tr.js": "a91756e1dafef7beec5d96d60ed7c44d6510055b26eb9a79899417d7709cbbd06b780ad375f75fcb53925c9646dce53b11dc252705c043ff9d0f764c6f817bb1",
        "l10n\/tr.json": "1d037400ab37213af05810fe7d159c41454444bf54952ec229a2deb5b85ef5ab1923af70e8f4358e29247ed301d54f27c415f609d6d2098c2ba3c591b6b91839",
        "l10n\/ug.js": "01c969e66bda0eadb4e760efb464e25dc59ef07be7f72da05cdc602bb92044820d08c20cd2a66242eb8b56f26985768c85c0c9cc3c29ad0e5a5c14c49baec371",
        "l10n\/ug.json": "0178f758d554254d6941e70981e487b210363feb2afe316aecb9e6a5856605a511fddea98087da6b76be3850cdb0e1dff61d495580a8bdc6d3fbaa3c29161f1e",
        "l10n\/uk.js": "264a066fa6d2941145393cd1f97d324c616c253d099143f8ad73188820cdb752949cb0a92d16bda3426598012224636f391d3d8200a25b45144e575f5d67bab4",
        "l10n\/uk.json": "c3aed685df0f5968943d954d0ee2afedd18ef8e85bb4624f5bd6800ba736f4ed824c1ced0b6dd8d2d3578d01768c786d0eb8b45ec87bd40df8f7c208dfb95d88",
        "l10n\/ur_PK.js": "6effa2e2718d38ddf1322605be8f128abcbb0a6041aca4665c21d6e5b152734802f3b634b9d6792738a98cbffe7b98d3034f6902c447e7b854ada7b33f64211a",
        "l10n\/ur_PK.json": "3f4506b3b15cdf0033d64fc444ab470bfe3245609baa402229b5d9c05efc2c8827d43d576dd35801babf8abd92d52ccbf38672215a047e7349ec960cee66aa7e",
        "l10n\/vi.js": "17ae819fb4c2605a95cd1ae2969b3480b1bc63167b2460e54c0087f146371f39c9f3903699a65474743376d2d7d68f18a92fb73edc6ad01c09127dbfec48ddf1",
        "l10n\/vi.json": "bb40273e381430455fac5bdb503c1e9b98bed4e25b2e5f8a6ef9c49e2491a21451e006c1c53a52dd7a694e74b7a7e85d9208f39a112a1317d9a44ac6bfdf03a8",
        "l10n\/zh_CN.js": "94f02c50588f15e7ba827917e6465f3ebc67f0649004eceb3b2d490674cc0245e02336765dea038e0e50fb127fd46df4e32cc6304719d6045b5744a2653ab20a",
        "l10n\/zh_CN.json": "25ce3e3759cb2c47ac7c05623bcb40660802258b7bf2d5044e6fefa75c76c1124385b366feb5c85593cdf5c1246373098c9e77ef8b825217dd7d48ce3eb379a1",
        "l10n\/zh_HK.js": "f987f04480552009b868b4a8db3b79a672922b2343b79411a4e50bcaf21704150f06bb081a1ea46a67e61650d1fc8cea6f0b8d383b004c7b6d000008369a9693",
        "l10n\/zh_HK.json": "dc98eafba9135b68cef464db2d94c7554fd586e4a951f8f771c8b392866a384ab6000779a3ec0e02bcedc03d6531b42a0a767c6943ac9417a0a8c3fc9c6e0ff4",
        "l10n\/zh_TW.js": "6bd8ced8159c294abbf82b769a3714a32e474a4a3ea71288c1ad17296ee64770ceb9940f177ca155917d87c65275c34fffdb289696dbd48ad0588f8290442ed9",
        "l10n\/zh_TW.json": "5937814fb99d7ee4d98cf1f4f9fc2c46abf514eaabad57f7c0c2cd2812c13536b68b4262ddbfa1126c854c61c2bdf60fa493ee1897837f7bad0f95492d7dc32a",
        "lib\/AppInfo\/Application.php": "d418b9b6ab56d3300f92fca2b93bbc98a39f36788f35ff7fa3eb49b89e0e2d82a2fbf47a4957e8a2670f335bfda2923c7641cb396a1472b44552ef78216c973b",
        "lib\/BackgroundJob\/ExpireVersions.php": "b72a47c6974c826409a0bdaf5321c063b8349d0d3966242fc9be13b7cbfce9ec9509b5c3c295124455e7bf354e123a9f3f1d249760d906249cb00bf08d14fa1e",
        "lib\/Capabilities.php": "a2e565c002f6e42e1a45f22adf4cfc493ef69028facd9ee53a3e13d2dce5405b4aa2fe822eed841eb5d3846e13536c13f022abc30b4cb59b470ad247fd8325c9",
        "lib\/Command\/CleanUp.php": "1c79b834c4e59e567f2bf9c1bae5bd9bfc937f3a1c06b8ea54f3b7066f1cbeeb78181d1ead4e386beda421d902bd67a16944d3b9d95b5ad19ca22170b29a449c",
        "lib\/Command\/Expire.php": "c019ebd1ce7853d49e239cfd2ae8243842bed1b643ae2bbf0a205217c70b27914e0d8e0dcc6a075dd154a4134e399774f34839806f0654684e8a7afd8401cbab",
        "lib\/Command\/ExpireVersions.php": "434c362e1af58fef2e4cc9e2c156b26133d7e17a355e60661ddb234381cd7e9b1a737b9783eaf5fc9411d806dbceb851e02d02a364dd9ac1ca47088281de9334",
        "lib\/Controller\/PreviewController.php": "191dbc7ed6565615ba2b6c81dc11f8934fbe4f42e92a56d608926d6857d4b8788f109fed1fa02f11a72df76c73d94d58327706c7f7830a3272d07dd4bc0ef79c",
        "lib\/Events\/CreateVersionEvent.php": "306d34582dda5e264113b9515c197d5fda9f9f1a478d7d0b4b9854479c5a8aa12f28f0ad6fbd0df49da1d736d6d8616ffeb88fde517b37b3eac535a2777ec7e3",
        "lib\/Expiration.php": "b12371d53e847b95a1edfe395fc0b0b92fb965aa54fedce2f9c077055296902d5d377b70f6fcd2c1b0fa7e9f6b29173e803b47771139b038805ec5532e3710c3",
        "lib\/Hooks.php": "82a85a64036a59ecd5128d90506fc92ea632fa45202245d456a48c6ab360450cd4f6bb6a5d93761754cdb2ddf6e5562d507c4a50f8b7381398efadecef73f5eb",
        "lib\/Sabre\/RestoreFolder.php": "3b1a1a290a1a9e8efdddecdb4b7ec2d23a33a3b854f106c2a4b5bf2b83dffe9f2e0464ac78d0c118571e9d2e3620fa7b37f2d9f387287abff5a9ba6bca45a721",
        "lib\/Sabre\/RootCollection.php": "3cca856752c494a62366ea9f715cc890ba58cb73369e471b9c129d5be178fb216d24f4bc8ac6cb6fbbb22269fa2b93781cd5168c12f0fec7c7479ee404c5b1ee",
        "lib\/Sabre\/VersionCollection.php": "976a728ca067e55cf7f84af67c7b4938ba6bbc70a9454881ec4277ed1aef7452e0865ffc7fa7d64e2cbca7ff609ca72ee31c0b1e7c347b000bdbc3f963b6cca7",
        "lib\/Sabre\/VersionFile.php": "d7a8e364f8272482326d3fc0242570bbd09347c8efa625e1a00cb45ec4932fa3ce1a97eea9839ff790bbadbec8efb77fd2e3cc67f8f81c003585531c4cf7be48",
        "lib\/Sabre\/VersionHome.php": "581540113dcabf01bbac97c526175771ac2c1b43234ddaf9891cfd58b55c44a24fab30368d41649255485e2c046964a7af8ced6dedc619ffd0542fe050ab9299",
        "lib\/Sabre\/VersionRoot.php": "97e4f9e5eb3ed82ce742469c697c63c05a92e241959e4577ad867e908e73e09dabe0e7ac7f2f1e5659e2bc0da48a53d62d7497f9ad2717167e76640ede0d72a5",
        "lib\/Storage.php": "55a94094ff04f56745830d64b2c50d8ad8ae94f816c28ce536418d6f2b80d95f95f874ca075c1c7e20f7905c46e7a0f97dbf949e368b5c92b86a0bd47910b4a7",
        "lib\/Versions\/BackendNotFoundException.php": "2eaba7409bd60c1578d6fafa67b7ea88d27eb03fe62a5c0d670d49c578be9cdff8bfe3505aa640e6a67be043f42964ee3877c35b0be7c879c37e194f10c05f29",
        "lib\/Versions\/IVersion.php": "419c343369ae4fb4b8ec0a8b31869d490fb4af6c17d5cbcdb00ed80ebd27ee340b6959d7786571b9d8bdc1b86eef5615df5d3a0c3d42b705f17113a19047bff8",
        "lib\/Versions\/IVersionBackend.php": "12f29cf2e3aff4dddc316e90888bf6349ce8b2b3d001ed818c9e2a8bc00470974ca9dfc355ce70d8c289bf27241c2a3f15ba1378e7f26ebd203a8ec160aa2f26",
        "lib\/Versions\/IVersionManager.php": "cb2fd362832e2874ffd7d25d9879fffe9e3d5b5b0027369bac845b8cbc83a800109221defeaa90e849be812ca2e6684cf192a352d7e98acc7834362bf6b6b8d1",
        "lib\/Versions\/LegacyVersionsBackend.php": "11217d5b8cad5f024a0f147c306ff6179ec7769cdb143532ced4a5614fcebaa3961fb3f841048bc6d410863e1272143749d29491a92cc77fbb7bd302f36b1746",
        "lib\/Versions\/Version.php": "3e68d1c90de39a152b073a30a7f44eec88014bbb68659187a9bfece95f51fe1ee35dc41ce32ee83216ed6d0db33bc06f4175e88653ea03a2003b2b69a1246aa7",
        "lib\/Versions\/VersionManager.php": "78e5d5f53883187f1d2d06eeb6e10914c936704ddf9d99db9e55bed15ab3bbce8a5bbbbc5be0a40e80d18671ddf011d3c7fa1c48431db187e28e3671e77b49ea"
    },
    "signature": "LjkyxJ0llDAWjSmHp5P3Guwt8Oq20PIr45fA08k2fX8UDBccF2DY1eYhsaM1r3VyByK5p0yr1yhkFHftk8f4zZiarJsU9tNHYvhGbqIwhMhf4cHEcsaXRZYEJtJDRukAjoBK7di5IwnxmE1kuLS3VWWhVEu3rSjUYOiptiMo+ZWRzT4gken7LoKV0AmfyIbDCgJF8cYNzB909b3z0cH66xM\/SvRwpbm8YMa3OXQtErvVAnn70PHELiE6tg0TjGKXQ2tc0GMHap\/k\/2hLx99dE7a6yCNEHLzYuA24olHxAWwcHDfHj0dgyTPwTOiUaQXs\/q+ZnhzzCzMu8mTW3oAoXg==",
    "certificate": "-----BEGIN CERTIFICATE-----\r\nMIIEojCCA4qgAwIBAgICEAAwDQYJKoZIhvcNAQELBQAwezELMAkGA1UEBhMCREUx\r\nGzAZBgNVBAgMEkJhZGVuLVd1ZXJ0dGVtYmVyZzEXMBUGA1UECgwOTmV4dGNsb3Vk\r\nIEdtYkgxNjA0BgNVBAMMLU5leHRjbG91ZCBDb2RlIFNpZ25pbmcgSW50ZXJtZWRp\r\nYXRlIEF1dGhvcml0eTAeFw0xNjA2MTIyMTA1MDZaFw00MTA2MDYyMTA1MDZaMGYx\r\nCzAJBgNVBAYTAkRFMRswGQYDVQQIDBJCYWRlbi1XdWVydHRlbWJlcmcxEjAQBgNV\r\nBAcMCVN0dXR0Z2FydDEXMBUGA1UECgwOTmV4dGNsb3VkIEdtYkgxDTALBgNVBAMM\r\nBGNvcmUwggEiMA0GCSqGSIb3DQEBAQUAA4IBDwAwggEKAoIBAQDUxcrn2DC892IX\r\n8+dJjZVh9YeHF65n2ha886oeAizOuHBdWBfzqt+GoUYTOjqZF93HZMcwy0P+xyCf\r\nQqak5Ke9dybN06RXUuGP45k9UYBp03qzlUzCDalrkj+Jd30LqcSC1sjRTsfuhc+u\r\nvH1IBuBnf7SMUJUcoEffbmmpAPlEcLHxlUGlGnz0q1e8UFzjbEFj3JucMO4ys35F\r\nqZS4dhvCngQhRW3DaMlQLXEUL9k3kFV+BzlkPzVZEtSmk4HJujFCnZj1vMcjQBg\/\r\nBqq1HCmUB6tulnGcxUzt\/Z\/oSIgnuGyENeke077W3EyryINL7EIyD4Xp7sxLizTM\r\nFCFCjjH1AgMBAAGjggFDMIIBPzAJBgNVHRMEAjAAMBEGCWCGSAGG+EIBAQQEAwIG\r\nQDAzBglghkgBhvhCAQ0EJhYkT3BlblNTTCBHZW5lcmF0ZWQgU2VydmVyIENlcnRp\r\nZmljYXRlMB0GA1UdDgQWBBQwc1H9AL8pRlW2e5SLCfPPqtqc0DCBpQYDVR0jBIGd\r\nMIGagBRt6m6qqTcsPIktFz79Ru7DnnjtdKF+pHwwejELMAkGA1UEBhMCREUxGzAZ\r\nBgNVBAgMEkJhZGVuLVd1ZXJ0dGVtYmVyZzESMBAGA1UEBwwJU3R1dHRnYXJ0MRcw\r\nFQYDVQQKDA5OZXh0Y2xvdWQgR21iSDEhMB8GA1UEAwwYTmV4dGNsb3VkIFJvb3Qg\r\nQXV0aG9yaXR5ggIQADAOBgNVHQ8BAf8EBAMCBaAwEwYDVR0lBAwwCgYIKwYBBQUH\r\nAwEwDQYJKoZIhvcNAQELBQADggEBADZ6+HV\/+0NEH3nahTBFxO6nKyR\/VWigACH0\r\nnaV0ecTcoQwDjKDNNFr+4S1WlHdwITlnNabC7v9rZ\/6QvbkrOTuO9fOR6azp1EwW\r\n2pixWqj0Sb9\/dSIVRpSq+jpBE6JAiX44dSR7zoBxRB8DgVO2Afy0s80xEpr5JAzb\r\nNYuPS7M5UHdAv2dr16fDcDIvn+vk92KpNh1NTeZFjBbRVQ9DXrgkRGW34TK8uSLI\r\nYG6jnfJ6eJgTaO431ywWPXNg1mUMaT\/+QBOgB299QVCKQU+lcZWptQt+RdsJUm46\r\nNY\/nARy4Oi4uOe88SuWITj9KhrFmEvrUlgM8FvoXA1ldrR7KiEg=\r\n-----END CERTIFICATE-----"
}