{
    "hashes": {
        "appinfo\/app.php": "37f1c12377fe7b6fbdcb9966ff9277b7bee0faf52671b0337785a44995d7fe83b998647595c57c4d9a6e4099ca5700003db2ef2aa1769f5eb7532e0043996028",
        "appinfo\/database.xml": "0003ebb50f4e5520bae737014a0a0649f117e37d66e1ba784031729203a2fca9daa2843202b508d457e1579a46451bdf3aebebbb63dd5fd941d48a0b1c4d9b34",
        "appinfo\/info.xml": "197b39236e1e589daa5ce8b8cffe61dc1e1e8a4326b36ec5b3794f7a8dd33313c1d77f91dd496c30005b8dd39c8318394c33b3bbf68e038ace43c146b296060c",
        "appinfo\/routes.php": "7f5187a11dfc5405167811b366687329972cdfae792b2c6366ef898196916a9e0ca4da477a5905e1257c24329aedd8e851aa705970db41c359316101db0abc4c",
        "composer\/autoload.php": "9ee1809dfe48da7b5287e15efc8570b2c8822c6b18671d3de44adb759a49b9ea2c5bf98e642fd9ab5741c64f265d6c79e75afa1babd1dd8d15d45ca243f64efb",
        "composer\/composer.json": "ba5345993a33bc39efb45bc207143e532b29794ff47377dfe2045adb0021aefa69276d97fa983e260f4e1cd8af77ce6f2e6ba75797c5c812a0162ab8757a5cc7",
        "composer\/composer\/ClassLoader.php": "6d630ae5c62bd43ae490e02b0e1eab6f9a4b92364b617e0dbb4404ff11bc33db238568dcc3df9d8de616f191109853bf9d9a408030f1252fa7e420e5321227af",
        "composer\/composer\/LICENSE": "f3bb64009f41a425df5a9bbab53490f0eb9b74fa8d6aaa2f57efb928edc4ffff330260666edeaa04a91fed708c3663371cf01b284f3a08d6698aaef7a23f355a",
        "composer\/composer\/autoload_classmap.php": "6c5c11087df927aa2f742f320466f9db935e67f6aa6bf6659c4f00671ce425dd67119d65f682f99c1dbc1fbe35105a22a81f7c81cba7641167f7a54a4d2cd735",
        "composer\/composer\/autoload_namespaces.php": "dd8ee31d2faa9014fe567e1f954b5e7f450cf06feacbb96d4df663c59b1a36a0b7d26ad41b46354bd14f282fa7899298137208d1851099cd3ada285650efd90f",
        "composer\/composer\/autoload_psr4.php": "d5aff2e1c636c9673c837496babc9d1b15b6a2d56a523b12d205a217f04402ab12bb4b5f554b3c4f8b0715be88f40637c9b11cf331e8621ac4cf514aaebb5725",
        "composer\/composer\/autoload_real.php": "af02b63f58a710320d124a0beed1cf4eb6a3cf7af6b970f06eaf29ca8240bfaa80046906de84e14f6a00ffc702a75f4729771902b1717f7e3f8c7045ad144c06",
        "composer\/composer\/autoload_static.php": "ebf4ea1524f506b68a2798b5f8b0a63b62c699f2c7e9ddb133a8cc5af326c10353d2af22e26112c7fb6b44d339243799b4d4cedf24798e9d68602a97cafe9362",
        "css\/settings-admin.css": "ed79c73c170f1d5086b23942cd32496a05f6b5729f30b04ddd09bbbad3c74ee924ff6763e4fb5291038d5514a46081b710d02bd6e7ce6ce65a656a3935f98b6c",
        "css\/settings-personal.css": "dfd12e9c2df89ca392c7561bdc78d4d3be6936410895484e7974d5213125d26f1fcf3cd8e853e9e336945ce91d25c0899a25e1e5c5d9ed3ab7b4724b7b138be7",
        "img\/social-diaspora.svg": "a981d843e7cbc5e42cc2777845a0f6a9dd75b650dee6e51316719a0be6bf761743b4230686e16be2664c6e03719ad7135fd59bea80934ab7de575c60f1b50862",
        "img\/social-facebook.svg": "6b2abb7f65dccbada831e4249a05ae3cdf0e12aaafcc924b8ae033b8722fd41129801e611468d9c070eed00f340727f19cff296ececf12cd3697a44dd234355a",
        "img\/social-twitter.svg": "0eee6ba445c8e11f9f54ffd38b2ab5a2834a026bc6d0161c41926e02d599d15f11756330900cf4599e15aca7171fcdfdf28afb05e725b48d2397302a63c718a9",
        "js\/external.js": "3f717a020eceea6f4ffcd008bd0743849824e25e761cac340a3b2c2ca38251f996f60bf03404a9cf4897fc173bed27e0f7f992ae80b1119fa44a1634a20e1137",
        "js\/settings-admin.js": "69812fccd9615082da19f059ed77a5c09b71b5499e7c57ba99b3ad43f803fd159e489fbeda329abdeb63f7ac172769823262ebcdf5fc5b25a14be4cc1b4e178b",
        "js\/settings-personal.js": "521eef60c1326d7275fa538065d6996ea8bc1a234990e32a0be33622da886dca6ee7480175d59ac16bafd5930b42b74f2db6e3e72280c5bc801f2a2cb0e28107",
        "l10n\/ar.js": "9ddfb5ead68cd988ea755fff8c7377269ab3694f8a63cd9e632e05e03e6bf07c37993c6cf7f9e1e82d1714c2cc8ee68ee346048db573e196479a79d872ac3935",
        "l10n\/ar.json": "a4d3762f099de5ca6b9e6bb20d4d91913f2c74340d90332027552a5822048ce60e3142795e778e9a7106c6adfcb5448eafb55f13f8037cdf9ecd9a5bf85bb33c",
        "l10n\/ast.js": "55025fa3e173978fd205e604bee689f60831547e81b2bab64097b0319caac825cf99ea3aaae62391bfa7e254e97214a55b29672110ce68038d8e3ae81406a7f0",
        "l10n\/ast.json": "53b523a5f8be32a00321f69bebfcbfb0989caa25fdecb229409e4b035a382fe8afa395f1873bfa3c889c8bc973553883201725fc400914a3af851e271cfa73d4",
        "l10n\/az.js": "eebc8348317504dfbfad9675421cc364b1e109f3860be4a8f70af74b9f871ecc0b311f6a943a5c1afab77813302708c075a9e3b52715ad9ee213fc099af95a48",
        "l10n\/az.json": "10e9920893a747042f72f6bb761eacd89199a9feaeabb11ab0d22bbbb1f996f304900999da947cf26fef4aef0efffc2db1bee0b87d16483818c1e640ac74d4e5",
        "l10n\/bg.js": "995f479a7f2383e4dd9b4aaa45ff646ebbbe199e4c5898670f8fb920837f666c816fac8367d58dd11fe99e5082cd5873ec8b93938ab741f11b3b08ed96ba882e",
        "l10n\/bg.json": "13965a96265028dc60843fc5565f0b915096119647da13fb016c02311162d104448eb487884397a1372e82623467cc9446da3ff104851224a00ed277e1e204b7",
        "l10n\/bg_BG.js": "c42d79dba0856461fd619cc7d58ee0fa7560c3bf42e43eef6238e3ef997d06762b2178843f24fbd5fc349d3234dbf7033a66b093e818b636760f955d46feac12",
        "l10n\/bg_BG.json": "ae0c31953a6eddedf44aa7ecf07a8ee41d968f07b19670210d03782a131733b418f596dda3d5815257a5f20833c7c3fb7dc5d7c53490aa1d35686d5f3567f5fe",
        "l10n\/ca.js": "55502fbc562a4729ad6e81515ac87d4e94959c46201b0eb3fa5d48db9c6083e2681339c45c09b38fdb4c271eb5fb68f108adeef36bc0f83d4c1ca21186df6276",
        "l10n\/ca.json": "22a52f86d4930eb4321e73562a07c809346378a41fc56d103bc03f19bb8b9ed4e06d5ad35d6e99e4e33be7cf0f82d1b032c2f0ca53efaec0d1a28a348321a14d",
        "l10n\/cs.js": "a16df888face90d7005c00f97f28e2eb85996258f6edb15496c18e7123cd661c661acc3d30f5030581297f793a8fad4025ff88e582fc1a64ba41fd882c987997",
        "l10n\/cs.json": "b9a952f66e67cbb3f530ad5f12961c3186185cfa6d2ee38fe5740457d591f5c386581bd41f12b1b29f8a18586e7a22a9da2fdc37e2b012f757f8ca2255022e40",
        "l10n\/cs_CZ.js": "9f27eb53033a4b0895339bc6036ad33671e9a2e9e11d0b87e8b3a54f7ae7a2dfd2b946ab922a528c41f4624fdc416c17e36fbaa79ca29bc7bc2aedadef134b64",
        "l10n\/cs_CZ.json": "68c30e6552f83b2303435abefc55deed9126ac38e327f2596ce9a7d15bed3bb591bece3651a4f45debbd8866730bf9f12e91739126e107deff6ae4fd1ba868db",
        "l10n\/da.js": "45a2262bf11b5964d0357a86e51d0c70f1b379d03996b4c24ae2b408a91f95461b46875727137bd553790787e172d411dd2b422ea9bc6a907cbed2b1a600f499",
        "l10n\/da.json": "6655e0abf730d36e11ae2d45d0957d925e458f3fcfe38a9e246e09d2a784e9824a0580d56ee25511a0a50c84b7b79c102a7d6e08ed0b3cd1ecb9282f56391457",
        "l10n\/de.js": "60759cba9f90cb4d479a9ac62dd4585a483fa21d58076eaa11354cba62f8de0bb42b203d2d5060a61e87ab1ce9374927706c42cea4300edfd826c4e15c404504",
        "l10n\/de.json": "f61bedbb415484e5f0465773df6d65a5b8ec26ff5b712eac5408837f3d0664b0a86bd960591dd4c9c8bde800b8fe6bf51029caa8eb3835dd559c3190f4105772",
        "l10n\/de_DE.js": "176142b387aa3fcd1b9abd81dc34f4489e8d4843f13499373c54840e62b9281bd843897de76ff7a99c20ae953dfc06a48eb6ce7ee856b77cf6a5fd1d98a796f0",
        "l10n\/de_DE.json": "c13591c2906f9103398df89c5cdcb6c6c5125e848eda4132dba545398c7a0fce1ae80c23cbcff3b0869127018fab397108e40ec23ef879d436d86114368a5aeb",
        "l10n\/el.js": "e79b11c828c3bad88de08d51db940eece32ee4adbcf5cfb238a220dce2d612ac4ecd6b02ec9bc15086a41e715ff93d170b8813668bb3983513f9560f6369cdfe",
        "l10n\/el.json": "9d45c74dbb25bb878cffca1ad6c4e7d2df60115edef8cf61f606735df60075df39f93b8ca428f0cd48871e4ce856274dbc0e4abba7f04447abbf5c68896d4b86",
        "l10n\/en_GB.js": "19bbfb5c8e3deeb1590d3b38796af1d0da40480d9ebfa6c2b315498a42160bc243ec267dbd0d644d83bc76dd78d47d7d24fe1910f0cd9e9a2b3fde17943f9179",
        "l10n\/en_GB.json": "266961de725b6cba14b1ac1cc526412813fec59e3dff68b44f9da0e973dc7eeb470e549451b55951c27f925be23ae1f1accdd70bd6d3b5b783aaef395d83f64a",
        "l10n\/eo.js": "2da7843683d59eb703c233e0519a83edf416c372719e59722180222f7697a664ed9fbb0585eb8494ba6682c4e1537cf1418dabe67d3fc87b737bf601c1d453e3",
        "l10n\/eo.json": "bed2ffed2683596527685d5be3c64989ed3b8ebe8d94100adb3818013e5d1b3ceceaeb0d92f1c6ddcfe548ad34954a30e8b5d1109de679f0c70c03fe5c3d4dac",
        "l10n\/es.js": "108d5b06ab4d3ae6c93a0d3ec8fdc870385ac1c32fb060857f476a969d305725648c62eea064ca48f9fb94d69216b0a4d16ce78cd460489ae055e9a691260608",
        "l10n\/es.json": "627a8f249370232338c6ed1d8f30ceea472f9e33eb6a3f82e33a4c3aa0cbcfae566a184e2ee4a060f2e85451e9f9b64f0a15cb6f74511817b9e9e8fd2c13413b",
        "l10n\/es_419.js": "e2eebbc9ff952eb23db6d9da73e1b65121af01e4fe7b19821e8d76914a4cc803dee887375508b4eccfd51f491f8172b023cf8cd4e2ef90fad456c777934b4999",
        "l10n\/es_419.json": "97639c37d3d5254740ba765b95b98837972cf95592b6dc2339e13a9a035a790b4495ccf67005e8ee4b89c33c6e2814f6ba7c9288647a55329842adec398c84fc",
        "l10n\/es_AR.js": "674212bb2a653a7ed404fa25366ea0273cb0a6c295b11fbff44f9cefcbe47fe357f3e47343410b3816bbafa0dec9bcd669f13f64a23b3fa01d96d748c4a3fa32",
        "l10n\/es_AR.json": "02688edad74213a61da27a7f13a1e18998544f0ded60a40fb1466d263e1c7ec823d98d050ac9f5f7fc4f4958921e3da1c15685d7fde7a9f2ee862417890ed572",
        "l10n\/es_CL.js": "692cdefb88d03fe30d111ef6a0126c47c545c13ab5e38d2faf4f0cc682cbb3ac7930266bdd9df94022e5fb7ca558e7933d02b342ead32941817b7cff0e010342",
        "l10n\/es_CL.json": "1bd88617ee59f66d38a514dd00c936d89661e4f01f668fa26982ec98881d6b808fe6d3dd9355cc59430f827773be9c7b78fc30b86b5d0d8498dd734c93e64402",
        "l10n\/es_CO.js": "692cdefb88d03fe30d111ef6a0126c47c545c13ab5e38d2faf4f0cc682cbb3ac7930266bdd9df94022e5fb7ca558e7933d02b342ead32941817b7cff0e010342",
        "l10n\/es_CO.json": "1bd88617ee59f66d38a514dd00c936d89661e4f01f668fa26982ec98881d6b808fe6d3dd9355cc59430f827773be9c7b78fc30b86b5d0d8498dd734c93e64402",
        "l10n\/es_CR.js": "692cdefb88d03fe30d111ef6a0126c47c545c13ab5e38d2faf4f0cc682cbb3ac7930266bdd9df94022e5fb7ca558e7933d02b342ead32941817b7cff0e010342",
        "l10n\/es_CR.json": "1bd88617ee59f66d38a514dd00c936d89661e4f01f668fa26982ec98881d6b808fe6d3dd9355cc59430f827773be9c7b78fc30b86b5d0d8498dd734c93e64402",
        "l10n\/es_DO.js": "692cdefb88d03fe30d111ef6a0126c47c545c13ab5e38d2faf4f0cc682cbb3ac7930266bdd9df94022e5fb7ca558e7933d02b342ead32941817b7cff0e010342",
        "l10n\/es_DO.json": "1bd88617ee59f66d38a514dd00c936d89661e4f01f668fa26982ec98881d6b808fe6d3dd9355cc59430f827773be9c7b78fc30b86b5d0d8498dd734c93e64402",
        "l10n\/es_EC.js": "692cdefb88d03fe30d111ef6a0126c47c545c13ab5e38d2faf4f0cc682cbb3ac7930266bdd9df94022e5fb7ca558e7933d02b342ead32941817b7cff0e010342",
        "l10n\/es_EC.json": "1bd88617ee59f66d38a514dd00c936d89661e4f01f668fa26982ec98881d6b808fe6d3dd9355cc59430f827773be9c7b78fc30b86b5d0d8498dd734c93e64402",
        "l10n\/es_GT.js": "692cdefb88d03fe30d111ef6a0126c47c545c13ab5e38d2faf4f0cc682cbb3ac7930266bdd9df94022e5fb7ca558e7933d02b342ead32941817b7cff0e010342",
        "l10n\/es_GT.json": "1bd88617ee59f66d38a514dd00c936d89661e4f01f668fa26982ec98881d6b808fe6d3dd9355cc59430f827773be9c7b78fc30b86b5d0d8498dd734c93e64402",
        "l10n\/es_HN.js": "e2eebbc9ff952eb23db6d9da73e1b65121af01e4fe7b19821e8d76914a4cc803dee887375508b4eccfd51f491f8172b023cf8cd4e2ef90fad456c777934b4999",
        "l10n\/es_HN.json": "97639c37d3d5254740ba765b95b98837972cf95592b6dc2339e13a9a035a790b4495ccf67005e8ee4b89c33c6e2814f6ba7c9288647a55329842adec398c84fc",
        "l10n\/es_MX.js": "692cdefb88d03fe30d111ef6a0126c47c545c13ab5e38d2faf4f0cc682cbb3ac7930266bdd9df94022e5fb7ca558e7933d02b342ead32941817b7cff0e010342",
        "l10n\/es_MX.json": "1bd88617ee59f66d38a514dd00c936d89661e4f01f668fa26982ec98881d6b808fe6d3dd9355cc59430f827773be9c7b78fc30b86b5d0d8498dd734c93e64402",
        "l10n\/es_NI.js": "e2eebbc9ff952eb23db6d9da73e1b65121af01e4fe7b19821e8d76914a4cc803dee887375508b4eccfd51f491f8172b023cf8cd4e2ef90fad456c777934b4999",
        "l10n\/es_NI.json": "97639c37d3d5254740ba765b95b98837972cf95592b6dc2339e13a9a035a790b4495ccf67005e8ee4b89c33c6e2814f6ba7c9288647a55329842adec398c84fc",
        "l10n\/es_PA.js": "e2eebbc9ff952eb23db6d9da73e1b65121af01e4fe7b19821e8d76914a4cc803dee887375508b4eccfd51f491f8172b023cf8cd4e2ef90fad456c777934b4999",
        "l10n\/es_PA.json": "97639c37d3d5254740ba765b95b98837972cf95592b6dc2339e13a9a035a790b4495ccf67005e8ee4b89c33c6e2814f6ba7c9288647a55329842adec398c84fc",
        "l10n\/es_PE.js": "e2eebbc9ff952eb23db6d9da73e1b65121af01e4fe7b19821e8d76914a4cc803dee887375508b4eccfd51f491f8172b023cf8cd4e2ef90fad456c777934b4999",
        "l10n\/es_PE.json": "97639c37d3d5254740ba765b95b98837972cf95592b6dc2339e13a9a035a790b4495ccf67005e8ee4b89c33c6e2814f6ba7c9288647a55329842adec398c84fc",
        "l10n\/es_PR.js": "e2eebbc9ff952eb23db6d9da73e1b65121af01e4fe7b19821e8d76914a4cc803dee887375508b4eccfd51f491f8172b023cf8cd4e2ef90fad456c777934b4999",
        "l10n\/es_PR.json": "97639c37d3d5254740ba765b95b98837972cf95592b6dc2339e13a9a035a790b4495ccf67005e8ee4b89c33c6e2814f6ba7c9288647a55329842adec398c84fc",
        "l10n\/es_PY.js": "e2eebbc9ff952eb23db6d9da73e1b65121af01e4fe7b19821e8d76914a4cc803dee887375508b4eccfd51f491f8172b023cf8cd4e2ef90fad456c777934b4999",
        "l10n\/es_PY.json": "97639c37d3d5254740ba765b95b98837972cf95592b6dc2339e13a9a035a790b4495ccf67005e8ee4b89c33c6e2814f6ba7c9288647a55329842adec398c84fc",
        "l10n\/es_SV.js": "692cdefb88d03fe30d111ef6a0126c47c545c13ab5e38d2faf4f0cc682cbb3ac7930266bdd9df94022e5fb7ca558e7933d02b342ead32941817b7cff0e010342",
        "l10n\/es_SV.json": "1bd88617ee59f66d38a514dd00c936d89661e4f01f668fa26982ec98881d6b808fe6d3dd9355cc59430f827773be9c7b78fc30b86b5d0d8498dd734c93e64402",
        "l10n\/es_UY.js": "e2eebbc9ff952eb23db6d9da73e1b65121af01e4fe7b19821e8d76914a4cc803dee887375508b4eccfd51f491f8172b023cf8cd4e2ef90fad456c777934b4999",
        "l10n\/es_UY.json": "97639c37d3d5254740ba765b95b98837972cf95592b6dc2339e13a9a035a790b4495ccf67005e8ee4b89c33c6e2814f6ba7c9288647a55329842adec398c84fc",
        "l10n\/et_EE.js": "6ae9d937b587aa1030b8bfcceef8324ed1f105bdd790a8771d35c0f2c76c7ab12fb77b7f98765a4e93cdb7545c938ae1a325b50df0493ebaa36d840b95930935",
        "l10n\/et_EE.json": "1f7509d12047e4311757ba29bf0dbab98ba8f391174cac7233ef7cb2f2c7fbc9bd7490a8715676f8adb62da35b8c8331104482b96189c26fab56de76e53d8104",
        "l10n\/eu.js": "1f252dbb916e70f790c413111e762586b758b564c7c7f50effe43727281333f69610190f7bc0401776555f74dd8305eeb8ef811e92ac46764d23231c934ed681",
        "l10n\/eu.json": "0a0e24de1da96035e9d942154e18d823e68b4e6016c847d5edfcc2d315004f8132f38ebbe1a8fa206243e78fe3796b6f73d01ba704a901b6a3fd828a87b00cdf",
        "l10n\/fa.js": "620a3737cd26a0ec59884495ba08d72a364c83bf4865f8768960f35b796c33183d28a655208979809976b343cd85fdaf54f372435197e9227bce125046cf0b41",
        "l10n\/fa.json": "44fa2ab72961e4657f676a6e2ee6db11c158aa0e93fc1e33a9b8a1eeed43d9e5f36607bf3937f3318b3d83b7cdbfca59a6dbf0b56929c2608600a4da9d6ce020",
        "l10n\/fi.js": "8661f1584114bc330f399bcdda9ca9eb44fb548a9c5539804c41c9f4c134e6e947274a114790ba24340409196586f6e450d6f701e24fe9d54fb8771161b9e4b5",
        "l10n\/fi.json": "0d08f85d9ec95e32c778466e8ef7680c59de9c00520eb92628a78b8be32e98b97b68b77d0575092cd2ab4a861b65c94ace26b0d721d1fd66cceec8ebe5ec53e1",
        "l10n\/fi_FI.js": "8d4583158df86afc84db2472567be5d11c8d7858779da3d228fb909b0a68dfab1e001035167b5638f6d54c6a4267b21d74944c30702e2856847de5e48300c1d4",
        "l10n\/fi_FI.json": "521a7376e36980c92edc4af44b01117a708d3c148dd5356ebaa710b1932c6a0af61a8c2ee3a8fd71d1c8ed438a7f3bde0642dc72018044de80c61329f1abe449",
        "l10n\/fr.js": "bc9827aaeb2781c4b80405ba09129fe4de1b75e23527e4779304fe5e305cb20bcead0e2289b53e95febf7f2c4dd4123a54cd3df6777ee63490c234c06e814a06",
        "l10n\/fr.json": "86857867176b62f4d789f5f276b9e9d00e2d21bf4821c79e4f2886949b2853c470307a529c6ee8ca4bb950bea95f85620497b7b2cc20b42fe65fb57112d037a8",
        "l10n\/gl.js": "e5679ab1a677ebb5553a70dd1db0472305e56e029e22b8d541040481b351479fbbede6f4d02f98441a68e4ee5e9a1176b135c2ad40b2e264d8bc03e43eb0b073",
        "l10n\/gl.json": "72be9b1af71f5af4174fad269c46a9a3888fbe00c1349717e25f7c3e0872ed4be9b604609beda7eedc07f4dd90d1cfa7cc1820664e805186d357b176f7c2c27f",
        "l10n\/he.js": "12e01569a99723486167cfbf2682109a960a0c201fd8144429e3c79b34a7a0e6f4acd77256ade63dd34d14bfd005471d65e6285caacaea375748b1658cd4f463",
        "l10n\/he.json": "d4408ee2b1bf0fcd940113919f5fd4c7f4e43f36100f8013024fadcd4ed7f1970d2abdbc2cf26505cde50d91ca93527f4b40d4dc22cebd45a6a73f17e5920566",
        "l10n\/hr.js": "8aeb0162dcd9b445a7797c9f532aed3cd929ab3d0430fe344368c334ff90e717813dda9cde3a9014be756736d6b1fac556475e2d5153de3caf52bd66b9b1c616",
        "l10n\/hr.json": "138fb70b68219fd266c1107797523f947353b1cff73667c0fa9d8a4e4fb8012233f58b0c62f08c11b9b28c0b2c8bb862908fc2beba770e28dd7646e42915671a",
        "l10n\/hu.js": "ba1a93663e61ff616072f46fa0e4b95bf08f7216011adf5facc04370484b29f6f53880a94ab7220ce9364750237315a5b163b77860bf22bcf45cc9b26c3827f7",
        "l10n\/hu.json": "5077392b0afb47d1dc89b6680fbf5f0d19c4c51b65b79ab889a4f03d2eb3b98c7472c3af1ed6f4edd1c22e1b0e37eb0bdb9660760f6cd11eb867dadf9239888b",
        "l10n\/hu_HU.js": "b6cc856b366cd74a25d38b07448f46cb912c1888a339ebb910b76bb24938ac7ac1837c6e91b8911bfa8e4ca7d3f837d19452a6ebb3dd0b5d220ded305ac9a93f",
        "l10n\/hu_HU.json": "f395a64a199b957754f520c36a0a010e652064ca9590beb8338de22bef3adbea67d73cc7ab427d7f2e7517fce0823bf968cc75d91877b7de5b6e5eda2da8a660",
        "l10n\/ia.js": "ebfc07e345fbb917fd1f3ea84e51b44cd5d34aaa4f64dabb4b0f0f07dd1bd5bd691d5120ca469fa789ec53eab585c2e7606d4b217a620c6a05ffe429fbd5ec92",
        "l10n\/ia.json": "88ad875f5165a2715410e6a9656693e8331a9df75bbbdef5f648da6421ccc9f54d5e9e51f4e029112a2d6a5636f8ff5bcdc078333b0be2eb7053c8bbcd30ba7e",
        "l10n\/id.js": "f7611de8f1d82a9680e96d807621c29298f2f9db121ee0fd9d95bdd06f8ec46748bb21c359b960e85b9fe3f713c875bf8b10ef3a04256876e6b5695614721ef1",
        "l10n\/id.json": "c04f89bfaf92e0598278f1b6536958ee8925861074b6b757deaa7b8147adba5378ab669744ab6672432c61227d9d4d6d327d554b3953bcf3244a45fa2f9537e2",
        "l10n\/is.js": "f8a7ef7df1cbd1a4a557c844ee539591eb1957b666ff1119b704b9218e65e6dc613360cc1963aca9e0f51d2aa9c6e179c8e5105a739b6a977b2bf8e38066375c",
        "l10n\/is.json": "5b120884e962fa1d7988f830d55aeaf666209b5838a4b38d0e79635e48a663fd5d28db76ea0570fa9cb6a5963349c612dc990fba2f8c402500cae848c4dae2bb",
        "l10n\/it.js": "6bad109b971b893a945b0d0f163946bbbcd52ce15161ca3e7a91d605f423fa4bb66f96ead4280d2c86b045c18948d66da4772c027990b6bc78c2684e68dd6428",
        "l10n\/it.json": "635aa1e51e682f82d991a2a3c179332bf54c2c3fdecf68d9daa315c5c99cfa29e5787490c211579a448d182b6bd78b91918e4c06e6b71ccc2fd69857014391cc",
        "l10n\/ja.js": "c1b030ca33d75c2f6732b45fe415c1fd025a8470d16cef04e80bc4d824b15c83c98ef86268d87e8e064e25ae8b7d18516ae20fff19dcbb6f10994b8b908cab9e",
        "l10n\/ja.json": "ca36a7b59ed00d746dccf2aff962e4197161d4f08515958ad9c56ca8c2327c92e599d7d71bb5ce65e8be996add26b3b04c8f1128966506dd39c9b431c4007390",
        "l10n\/ka_GE.js": "f68d13986f340c6bb7382eeaebb12bea2cbf7b26e01a9c62c3b38f3d4f8d95a399da64c2ec2c7e3b2cd476bac5e78122251c5c8d18307526c80ca21494f79225",
        "l10n\/ka_GE.json": "49acdb13027c1f4bbf56778b65150cd421f50e20e786f0dd68f0ec918e0bef4c18fbed4176d29a843e37b1261471ba3d543b334c170f686e45f4c32059d18b19",
        "l10n\/ko.js": "db1431aa4a5fb8d657b9a40c97848de8158df3229c045e13f3050602584b33bdb27f5ac066c70940927f703e4539c2b80e72bbfd42428f6e463dab81e5ce146e",
        "l10n\/ko.json": "00b60b1b202edc869730f74b97012e335b453438c67870fcedba4615a2473aadff1cb569d5d121d22648e223e6dd800e75f172ed53334b406d30dccc0136b1df",
        "l10n\/lb.js": "46a71d16aa64836a1a2511aa247f90a06e321689696b585880efe0ee3777a7361d38dd14d02294106a7ec839cc0968cef138c3436e555cc5480f4e36e9172dda",
        "l10n\/lb.json": "5bf7e700c01df3ab995dfcc57d603fa8d06291755eb21ecd1a6e479f9824ea734b4516e42c3a34cc14ca962df9722585d5bf2620818b1ad4ed61784269cf2953",
        "l10n\/lt_LT.js": "93b0aa203fe30c15b711633a628ad0442ee40336bcacc256359a09005bd7764d976707ed541c4b8c1cb4996519c7136accf0d6f4f7ca885ff83a856b9fd22bf7",
        "l10n\/lt_LT.json": "67d93f942603d05a0f06674b57f6d45035c365fea9909e76fb0c19921045830d85aa92c9059ba857791bb6851ac875699ae36e2a21f4d38a39629196bf656cd4",
        "l10n\/lv.js": "582c5d8ffd5c434f00151c2178a36b84e439d988b4aa4036744d6f62a9cca28edec1712ea992f97ea31f2f3255aef0f15b9df3a13270807e66117e85ba0709e0",
        "l10n\/lv.json": "3ed74988a9e94cc905ca4200e25f8b489ebeef1773695f35676b4e39e1deac6abb94818f0714aaeb7acff39d01ac23f4d7a1eeee710ecfbc448b14441119c687",
        "l10n\/mk.js": "a581877c827bee36aee9f395e8583f0854734e8019d425167c8dd5186016cb1680fcd504bbc72a3bebcd23be3184ffe7bb6a8fb14ead70a916526d260ae9d82a",
        "l10n\/mk.json": "fe2f0ce46d89e31062ffe4afec6844ed0c9ed5a2c9f6cfcfcb007aca0aac345367934da9f8354e3541f19663e9a7172092b3b22131a59758b923052284a598b2",
        "l10n\/nb.js": "b6bbb3e95b41160ecc2137efc3c906a606116ededf80013adbbc6d6814786b217ff7fc61e7f0089972ddcc7a02087cfc83751806e1505492ab4f0dc54350c83c",
        "l10n\/nb.json": "6efcdbc57357e6adeeba9e7ca98c22b451e504cb3f36ab521742501baf4a73f732e2c10d3adb74580a4b66f47b089e4cdd0dec61884d3ce7446110e8c42c92a1",
        "l10n\/nb_NO.js": "39c3bd000e8619736b871507e4ae1f949ee0c6d443332880cebe2ecc0946265824aad3fab510a8b06c0b05ab3679b52ca350dfc543ed7f3b8297d6aec119143e",
        "l10n\/nb_NO.json": "b157cdebe80d18fb2dd13f143a31d88058f9bd1e16f2215131360286e10dc3dcf57f4970ec78af973c5bd13ae2d8eaab4deb69cee383d406eb15b05d17687c97",
        "l10n\/nl.js": "5fde85d7aa3923fb2d612f564ace1007632e981c7fb3f90ffe8a1ac0a66805e4a205fe6b34b7ee2a628252fdae876ca2da9e3739f7217b9efce912c4d4431ca7",
        "l10n\/nl.json": "7af30b10ab392ec29f83f4683b529c01de1a40a95d7fa732637a0c799dd110db7f262e3d67e43cd67e3c0722318742b0e18ba1205505d61cfb29f8f93fe62b17",
        "l10n\/oc.js": "c88203ffbfd3e77a60551d165d324fa8a7c27145837241d0b5aab81ec3f565f3c8f685f2fc29aad964d230df6fc17787b1fd025ddb93fa788a66f8431091dd37",
        "l10n\/oc.json": "903df71693d57895b5f5ff3e9b813e837bb14f39759260b0f5c96806c2be2664a858814591ab4f0ad9d4551c45b5cd65be2771ae10a3f9e5587924da8c1ba1c2",
        "l10n\/pl.js": "ef2b7c6c0d74b34dbba10ca6b3563b8788b71c88c8a9924ce0192187ba6063c703d2f675789e337d6e81f840ab8beb01f038cfe15ac07e1f928beb554bde9add",
        "l10n\/pl.json": "0457081640a8d11a92e7b2d09204b1ddcf9bf0f787c25d8e74c65062e8789d630c4c337ca12b2829e608389366775b2e70dc623e3c2b68b53ff8c301cf29a2d4",
        "l10n\/pt_BR.js": "45bd0f22344ae237ae6d59676dd0893e56e9a1b9c92a87826af2f79dcf1e3108445c1f2c15e10beb4bff2df94dad39b8809cd70364f46532321481ba5e05d264",
        "l10n\/pt_BR.json": "15926aba919bd3e8f3d1fc41ba7c58c38fa866321cf8a165e977f7a9aa80284281d64b10da91458b819f4cc1088a21be9d099e4bfa75c4e65a7fde7746f3e935",
        "l10n\/pt_PT.js": "66d83d97010d76453b540dcc4ba7cb034b5a1e8dcadad16dc6d74ecc5128dec9f1a6b16ba1b03d8bf271f99703832298923fca86796903372782bb9adb1b440b",
        "l10n\/pt_PT.json": "0ed82fbe71330ff6a00ab9f8171edb83440d8248e55c809348e3519a1c48ad6f0c81dd3b36173d3381f67ed4dc6bd0018ed57373daedc5760445dd1d5526df9d",
        "l10n\/ro.js": "a122a820f8ecac906c506f6037b6248fb38484146d1bc410125bdade4cc3a01ac5bd408a78c07692dd7fa11cd57884f619f12903e2dd2b74be8a5bdac2f277db",
        "l10n\/ro.json": "ebcdb1b9f8a8274dc07af92d69fe1170f218255bcd46ef346c38233e88a3eb7b9cbbe3c28042052b4480ce486e49e5461199cf6d5ffcb3b5173b7715821dc3ac",
        "l10n\/ru.js": "4a9c9355c73a574065855de2e94c97f6131ce01001385e5e83a84a5e9f0d3bd26c2877b1de317a53ddffb6368e98c718703d2001e0e08074a76ba7dca6843bd0",
        "l10n\/ru.json": "c101d9741f3e973ac43210217cbbbab4c9309749b464f2b9c0dcd5bece9a021eb5a54921e332b01d71d7c291db0d2bd75057d6bf4451ce6a04b7381afad51049",
        "l10n\/sk.js": "84a501dc10f196bcef03cbb2c1c7ee62b504aee936a66ad8f8f14438149e220072035a0eeaff6715e83befedd2660d0eb21447c2373a84ce2523a69c94c53261",
        "l10n\/sk.json": "07d2134d5195374146328b65fcc3de21c850a62d1fd849eea84aa61049bb8ca9d1af37f41073d397a52d7874b4efe60959cb633953ad370c828b183af0af3cfa",
        "l10n\/sk_SK.js": "588aa3c39c21ccc93222638d68fe9439395b4d3439bc4c4539b47659e137987cba455b38ced6b69db7783f4c2967b41f5a957aeec3350776e3727964e70d3cce",
        "l10n\/sk_SK.json": "956968b9c6cdd1b76f66e7a5bb2435a2d113cc6ce4d9f1ac252fc6b816ba587272f28fc62e41972dd3e5a7087a25ef13f919302aff9e2e519f081192626b9901",
        "l10n\/sl.js": "4af69c32025283aca970724c5bbedca4d90183828014e9516b6ea795ddff7f9ea2bec4ee2893985fdadc6fb842a41aaad545d95e574368a82ee3195661a2677f",
        "l10n\/sl.json": "6accad6cd497a864874cb6de591e2d52aedd9f3a332b43421a860cc5b26b70d519dde8b2c7b835334049a17540b5b74675ff9184bc615bef10d65741f3dbf1b8",
        "l10n\/sq.js": "bcd8c85d64b5dde2d379e64810ff6a10ca5d31a5d89aa049a35ec5f88badbafa3c117e0538575982dedef8402eba1274a4dbd3ba21f9baa0e412cefa9957163d",
        "l10n\/sq.json": "c0695e94c751a30a447f79af0944e197936740654fe58d1d4f94dae4d7961ca0100f831e050ce866bd006be56982eadfea9bb7d58b15d5fa0f44c380bcd38071",
        "l10n\/sr.js": "d66e60cc4b2a1fe0afa90665d48892433792ea400ecc9370249c3f8a9a4c702f1a526cea073121e22a23bdddffe687367e853c8faac5c65b1b0d85b855fbff8e",
        "l10n\/sr.json": "1c991bac2932d012e4c5916e0c303fdca75437f8e7291069d292baf7cd1cd6c5d98d0b805ba137d01cdc5bb02819580a2953db00c0fc0db25ac78149953daef3",
        "l10n\/sr@latin.js": "314b1ea9eaa5d8951a822984ade670cddbeb638adab781afdf2271a92bf3977ddf5c911505e55b601ac7f88c958a363a8984c52b8c0d2ca983121c7223bc0985",
        "l10n\/sr@latin.json": "de8ddfc64f18e9739354cccac558ebd8c3891c74dad2fcc82d1011e02def1c44f4694ce5212b30bfdf786c284b9817ddcb641092df04fe8b341a9ce2c95ee019",
        "l10n\/sv.js": "a608dbf1d4e235f7cece0a8f8277f2ab4a76aab883bf5cc8258d8ddd79cb6ae00e4161a095cd26c00606d1375161df9a4849a7cdb81a6fae8c23e95b6d0ec5ad",
        "l10n\/sv.json": "196ee7773521e791ae47d71698315a3cd6f2feb9dec74a1ad057d9dcdf078ae2631852c71ad8d52793cfb63318f5b4b18f93e6b5a303590b48563cbae5bdb6ef",
        "l10n\/th_TH.js": "8d7111f7e2eb13152c262f99916875909742bd1e940cf052706042a7e646ce36a81fe2b4225c36df33afe56c73e353623f482c4bb7d89831a09d0fce61f798cd",
        "l10n\/th_TH.json": "9d2c440dd328db5aced758314f0732ee2a24692b63972dacb618f463a087475bb458a2e232487ea66a1dac0beaba21c06d198c5a3e1f3dde6bce4eada7a5c7ec",
        "l10n\/tr.js": "722fb9a35f8849c1622ba2510156b984fa1cc0da80271de5a4f342da9e94585df087e6b890819156c2b0930ea1f8c72d800f8fa47f76eb69ad00fa6e47aa0093",
        "l10n\/tr.json": "f742e3c758728a649e7e714806f735f73c6fac420dc8b60aa80594499f64960de73251897a288e98e32e6dae01dfe047d8966b4db0795cbbc4bd28f0fcecf706",
        "l10n\/uk.js": "0e5dc4b6699e42076863190e8635d8e465c244c958f919a241122b83fcbb40d86103090f4be7a528d1619663b13d36663f23d57aab4a41bffd40b33366fbd4f5",
        "l10n\/uk.json": "eab3a9c2b52f8f1f60f999179f9a1e471f3a369486a098f2cf8301d739a84a8f5091543198e46ae4b752b80378a76c1e58711848331670538c9c7a31977f7d46",
        "l10n\/zh_CN.js": "54baff5101e9f3a82dfb169477b5d84772fffa700c1d58b14fa5fa22cc4d1645be9bdf3bdfc449217695d0f2ccd135e8151351c9b47ec878fd0a710ed6c8b431",
        "l10n\/zh_CN.json": "56a80783a9d5e4f3a7e60c65b0a5f6add564e1d5db4bbb7db2c58367a82b276e363a4e81d340a34dbcc891e892d70c8eb38382c7f49e4457e903499fc07b3c62",
        "l10n\/zh_TW.js": "210bec15b0edceca0a5fe30c5b0b6f022d88ebd1488e9ab7451f9869922e19d3f4af72a1872ddbd4930a62bf1bf5e0a0fdbf505ab5c7ac3aac95bfb25cd8b243",
        "l10n\/zh_TW.json": "6368751911f98c599b223c27eac8899b85126b27bd3507ba2a39ea8c5fd72ae60e9f2e3cb07b75fce8685d7d719b58ef24825ae9a8ec4eb1a13681f78c405e21",
        "lib\/AddressHandler.php": "d3659de709762b768caa0f49149e79b9f8514643da8ca1b764aeed49e31595be6acae0992b3c9eacf6ef31d48af2d895c5006672850afbdc5fc5b74d233824ed",
        "lib\/AppInfo\/Application.php": "90530496e702f67d94f025e8498d707ab40165a02b6b8afec23b4e8bc4cad003e770219d50f07b035e704a8ef264447881f4171c436dc741fffa21b00c209661",
        "lib\/BackgroundJob\/RetryJob.php": "03b4a5b56048572d27fc0008786115d4644b63018b1ccd65a92ad9176e0fa9b0847da8b22b99eac80460b20555558ad8c8d6812e504ed8c6d613bae81a2d6131",
        "lib\/Controller\/MountPublicLinkController.php": "b95d6c62ea94dcc71ddce5f59769ca0217bfce456ca8ae428954f9c22f948f05daa364e871866e7dd2e47a025bf01c185f92d6811a06f634de8dfc7ea3973736",
        "lib\/Controller\/RequestHandlerController.php": "864deb2c688e760c694d686dcd60ee46905d976f0d6c9ed29164435cdf53e915bed20983c07a7b2e085e155c28ba074cdbe9f2ab8fa0146491dcd950b975e753",
        "lib\/FederatedShareProvider.php": "4a4388f7bcfa997df4b33812cb81299a80fccff00dfb437f94d9b9b696e99419d2c9d7354102e513667e1581779ddf6702ce6f3fe4e0e9d3715d0eb34b15d520",
        "lib\/Notifications.php": "19e5fd37e067665641315112ef90e36e46f4bfaecbd74233f2f4092842e3a17107df316a271828308b30ff0a5ee353617a08c2d861fc2dee529402e82c5e25a2",
        "lib\/Notifier.php": "d8ecdd0a888a1442cfc4237c2fd480cda3918067ca780f8c73959cf431d6fa44355bd31e48f005000943ca9a01cbc2c5ebff7eece8d67d98a88fb696ca09ccee",
        "lib\/Settings\/Admin.php": "dbcca2a8218968c287bb8747aacdbe54cc9460e34ce7a24dadd78fd5b1877172ad89cc6a4d7833af7c4f697ff7ff84c679f60663276ade22f82f3cbf37d80a47",
        "lib\/Settings\/Personal.php": "bf6cb67652933f94857cc91fb8fede99170591f7274f0710188374e9836fd7a6b2994d90375f6f1443dd0344cd2fdce3b875ec51a80eb712999c0c7365e491c8",
        "lib\/Settings\/PersonalSection.php": "73865c86c6c99814f5f7eecc602d652a2c198b24a1e99078d1c1a87a6d246b5b5a8e440a0cf16da2f553de5accc3914601098046e1da678df32dc004b65a6d97",
        "lib\/TokenHandler.php": "b9f6d78f292a635a40b7f4b1f6a0bf3f2667ee8318b15cb06bc9d5cbbb37d8dbb16a4a6f5ebb2d6953adc6753ca06a9fb8c5ad75c49cd55b81291186edb9f355",
        "lib\/ocm\/CloudFederationProviderFiles.php": "139b93211f85e0d5c69dfad211685316e8f46b0bc9012713627eba810332657413450677d93b8c9914673490d2f385c43062ff3602a06732f91557e53db4a9b8",
        "templates\/settings-admin.php": "debba0e8036b02d97350d2d11dd48017dbb099c4f1e0d0c7cdee6da84c869ea310c25eecbe7857b275eb6210027255cc51d28f9c807747b792aff3e0b8470eee",
        "templates\/settings-personal.php": "3ac572675b38506a12c980e89d5e8b00ff7dcc367e766df1c19a8dd7dea21d4d580f805b62d378b3bf0fd7f0ba41e968a2a35535302aa3aeea6632fbca5b3834"
    },
    "signature": "zqta407FOUiM5ZuYN0HqO5HWC6jgtcYdChBGwrhmFooKUUh+tC8Z7\/3UUJbjyn+TbUQUBTy\/jOvxH+k4utYiSeztpI7u0byph0jM1FFed2WVliI0CMFPMOn99ujXSGqVDwcQHdAezNq0WGXv9QL2yXMzbmAxTNMC60KXiA0rHpBubptMkZdH5+kR\/dn6QF82SNKmIRhNY5CiLnYqMs70KaHnuNp+NYs60\/iGNXhQg0MgH55Oa+56g5vMrqa5wbyvPwLlGqO+7b8Nq+cLP3tUxDt5TTFC0iEYXJZw8p1UnJ0ccVTev3n4TibszNfJKmHx4b8uEtCejTGLmuT8dLO96g==",
    "certificate": "-----BEGIN CERTIFICATE-----\r\nMIIEojCCA4qgAwIBAgICEAAwDQYJKoZIhvcNAQELBQAwezELMAkGA1UEBhMCREUx\r\nGzAZBgNVBAgMEkJhZGVuLVd1ZXJ0dGVtYmVyZzEXMBUGA1UECgwOTmV4dGNsb3Vk\r\nIEdtYkgxNjA0BgNVBAMMLU5leHRjbG91ZCBDb2RlIFNpZ25pbmcgSW50ZXJtZWRp\r\nYXRlIEF1dGhvcml0eTAeFw0xNjA2MTIyMTA1MDZaFw00MTA2MDYyMTA1MDZaMGYx\r\nCzAJBgNVBAYTAkRFMRswGQYDVQQIDBJCYWRlbi1XdWVydHRlbWJlcmcxEjAQBgNV\r\nBAcMCVN0dXR0Z2FydDEXMBUGA1UECgwOTmV4dGNsb3VkIEdtYkgxDTALBgNVBAMM\r\nBGNvcmUwggEiMA0GCSqGSIb3DQEBAQUAA4IBDwAwggEKAoIBAQDUxcrn2DC892IX\r\n8+dJjZVh9YeHF65n2ha886oeAizOuHBdWBfzqt+GoUYTOjqZF93HZMcwy0P+xyCf\r\nQqak5Ke9dybN06RXUuGP45k9UYBp03qzlUzCDalrkj+Jd30LqcSC1sjRTsfuhc+u\r\nvH1IBuBnf7SMUJUcoEffbmmpAPlEcLHxlUGlGnz0q1e8UFzjbEFj3JucMO4ys35F\r\nqZS4dhvCngQhRW3DaMlQLXEUL9k3kFV+BzlkPzVZEtSmk4HJujFCnZj1vMcjQBg\/\r\nBqq1HCmUB6tulnGcxUzt\/Z\/oSIgnuGyENeke077W3EyryINL7EIyD4Xp7sxLizTM\r\nFCFCjjH1AgMBAAGjggFDMIIBPzAJBgNVHRMEAjAAMBEGCWCGSAGG+EIBAQQEAwIG\r\nQDAzBglghkgBhvhCAQ0EJhYkT3BlblNTTCBHZW5lcmF0ZWQgU2VydmVyIENlcnRp\r\nZmljYXRlMB0GA1UdDgQWBBQwc1H9AL8pRlW2e5SLCfPPqtqc0DCBpQYDVR0jBIGd\r\nMIGagBRt6m6qqTcsPIktFz79Ru7DnnjtdKF+pHwwejELMAkGA1UEBhMCREUxGzAZ\r\nBgNVBAgMEkJhZGVuLVd1ZXJ0dGVtYmVyZzESMBAGA1UEBwwJU3R1dHRnYXJ0MRcw\r\nFQYDVQQKDA5OZXh0Y2xvdWQgR21iSDEhMB8GA1UEAwwYTmV4dGNsb3VkIFJvb3Qg\r\nQXV0aG9yaXR5ggIQADAOBgNVHQ8BAf8EBAMCBaAwEwYDVR0lBAwwCgYIKwYBBQUH\r\nAwEwDQYJKoZIhvcNAQELBQADggEBADZ6+HV\/+0NEH3nahTBFxO6nKyR\/VWigACH0\r\nnaV0ecTcoQwDjKDNNFr+4S1WlHdwITlnNabC7v9rZ\/6QvbkrOTuO9fOR6azp1EwW\r\n2pixWqj0Sb9\/dSIVRpSq+jpBE6JAiX44dSR7zoBxRB8DgVO2Afy0s80xEpr5JAzb\r\nNYuPS7M5UHdAv2dr16fDcDIvn+vk92KpNh1NTeZFjBbRVQ9DXrgkRGW34TK8uSLI\r\nYG6jnfJ6eJgTaO431ywWPXNg1mUMaT\/+QBOgB299QVCKQU+lcZWptQt+RdsJUm46\r\nNY\/nARy4Oi4uOe88SuWITj9KhrFmEvrUlgM8FvoXA1ldrR7KiEg=\r\n-----END CERTIFICATE-----"
}