{
    "hashes": {
        ".babelrc.js": "4553f208abd6695e99d5eccd183a121893bd49f4b52992d0574b4b2768b95390895e98a7c035f346b683ebc9aea2b43c736e5b07c053e7ffd622dc7e7fd7a76c",
        "appinfo\/app.php": "80814c03944dd3cb542099313b8152d8af687190e9531975f1dc20fea3d6079332c8cc9834438af4d2b8851e7a69555f5a7fea9a89f9aa33dc3405dda0e7b5e0",
        "appinfo\/info.xml": "5bdf7f4780f495b20cf015dcf60feedb01d63e4300b06d9f20e8b6b5a6559f28f3e0c7368fe8fcc073ece31537b47e6fac07b66c5196c99db11c35bca3c112bd",
        "appinfo\/routes.php": "243b03ba6bdaa8734fe7cc3d671ecf69bc265e70d77e0e0792bb780a023ecb65ec71d7fa6b844d93cc08f89077cd0b570215f07db6df59dcc00268152a7e5afa",
        "css\/fontdyslexic.scss": "8354cc05856441a56787c48b2e9196c46cc7ea3954205a36df775de7549428671bd9371258b75ddde6d82b4d24c45470dce5936ab48433aff3f1855c88e45691",
        "css\/style.scss": "8818e1f6e1f63426ebd13c30876aa88f077d93fe1920af8e4886fb4ede4c925aff263bfee8fd71715cfa05762543b140c3074d2ee8f1b749ebd9fad53793775c",
        "css\/themedark.scss": "3667c1c0938141fff0e34977a3fc14a7bd7461064ea960e46abf1f80307db8ca63afe290d604fa14dbacb99f44042f86807721af65f8f1f23f7c6f4642e4e145",
        "css\/themehighcontrast.scss": "ddcf8610d9c10173db81669867deab23b075aeaf3549e78a2dfa8f49cc1dbe0349f30d90368e3a7eb1888f1dc5bb9ae636a59b8a0996b8468e0f115c59193354",
        "fonts\/OpenDyslexic-Bold.ttf": "5e33bbb96e2ae84251a94edf326fa9c13c61736593cf97aa13d99a67073788537bbdb4164c0a96bb8bc0fdfc0c9e2c346d3b447fc523f4579dde9966c2fdd031",
        "fonts\/OpenDyslexic-Bold.woff": "81d859e3dea435ca9ce0dd250d53fddc7c4ab7ded3c96e20e3de8e4ad61918d2287adea3cb345c8a2810df2b44522062b8bf8b6b09ea6668e652d2823ca3e0ba",
        "fonts\/OpenDyslexic-Regular.ttf": "0745efff08241def7af6340582a264e00e4afb2428fcef43c9ad19744607f581243dd35b626fa52fcf3750cff8951724dba73b85a8bc2d082e69ccc490d05257",
        "fonts\/OpenDyslexic-Regular.woff": "a2b7011be4a20197474b752259a42f7b3ccad1680137dc575e36b297d51db44fc6adfb70e3797fc3fe4892e07a94777daebd50901500cb5361160525963d96ce",
        "img\/app-dark.svg": "fee9568cd5dfa0f3b5966c2f8894764086c0525e11f6fcc2517d512249b654f3d234dba0712f25365a5f29a92cb923a875c8c316dc159ffdd78497d12b795921",
        "img\/app.svg": "52baa47f78de6314ecadd48d7aec3fd5fbe0767b05e780d3fa46d2a722cbfbab9f571f39f1acf7145de3174e244e9770bb628a527e6faf6c4e21845b9e6878fd",
        "img\/font-highcontrast.jpg": "633b3375f78fcb9ce3c464078c380d269f09794ade9259cba55f3b2118687a4adaccd18e2ae2cb2cc4ebf5ffa47096c2c509889dbfbd704efd49ef689c5982a6",
        "img\/font-opendyslexic.jpg": "ab59144fb15a2115c42765f46469e34fb48678a0c3e20f3ea14893a3d30e2243af79e90f07a63d690b5f86093700425b10d0d1d7f3fb1fa5f96ec4c9c142319a",
        "img\/font-opendyslexic2.jpg": "83178ffd87737957707bcf57772a2b35965c8390e7cf4e0343b9622be6e247076a4bedbe1e48a407cec4382654823d829ecf9975f32e3d0d5d4fd6e95381e6c9",
        "img\/theme-dark.jpg": "d73093cdc9b01ce924c67fb9e341b9b8acc3f17595d0e70f10c10fded9c4bf796d180221cca58765303271180ad6c5dea2198768572cd9a4cc74fef4c07e0382",
        "img\/theme-highcontrast.jpg": "997bd6dacfaa48ea605d39d7f93dbad87d384b8d83c1ac371f2558a84fb7b9e5d1d0868f6a1fa805c542704ccf55905fff1e554779c68072a769bf18a44b5caa",
        "js\/accessibility.js": "b7b6eb563474c14ba566dc2705bad76c7ba07a9f69870f09f87442395309b5c5dbd784d8e02e89d27a763035b35aa1bf9029a6980cb371c79f2001f4beee061c",
        "js\/accessibility.js.map": "93065f635720c0b77de48e5268d4d99364f3abd12c52d8656b14f77f884cd6ebdc6d613fe3db5006fc3b715b2382beaf9ff9de55db3948e0c9bb0e95f7083e0c",
        "l10n\/af.js": "b2d4ce36a6fb9c7033974e03a584c40736b08d7f165353ad2cbaf472a09639a5022adb27b5a45322c9812d0eeda78fe630bf09f996a44b3d09948c70a1ca71c2",
        "l10n\/af.json": "41b209052deffe79f6bcc7e9e94900a627cf02db652941fe204292c284f7dc6c2bed4f145145af339f3915f1051e84422a5e3775251ef7a300320a76e77e494f",
        "l10n\/ar.js": "74c591dfa6ecdb445f98d6066404ca4847e32e3e80c1e8b5ceb6c479fd57c07a04181c0ac5f72e558474970258b879a36cee8b45e5a9f20fd902ab043eed3f4b",
        "l10n\/ar.json": "7e50fd6c7eba77d522a8b7638fa1e3f69e36565fb35b4b2fd664a2085a1822af4476742235506d2573d96098f5cb409dfc02a6e13d28727db32a1e2227a20b31",
        "l10n\/bg.js": "2938ad03681516c8d0cae9d319b4a0ce2d2f10ab94c5c2602d883b5c9b8eca247d78007030a6bdf89f6c0c9016af367275cb92e21967f0f6853d51b30cf236d2",
        "l10n\/bg.json": "58c22f046c5da947da50f6133f53b23a8b7afda7461239dbdafbbba000480b568f07e700d24c1cc643ac869f4897362789619932e04031400f3fa97a106361c4",
        "l10n\/ca.js": "77b4ab2be3b7e9afce652bc1fadfb710006f1c6dbdcd3ede9bb6b44d98f8dab81c2194e470b26233cd7c67c0f366c8259dff65b439305619a619aee9baf66b6a",
        "l10n\/ca.json": "da60df36f1fc89b5a65caaa72eb9e335aae1eba667404626b0b91dcd0a8912f17c0dd42cc8d9982f0876de41fd49a3429a769b61ec594f45fe2daee7e1b98a80",
        "l10n\/cs.js": "18f3239e8c2ef6d8fa883e0f13e3d51e50ee1bd3e6308f107a810fd5ead13625c2b35c203e06e6110fdebab629981e008789fca7f498470eb819dfcc81cd5f34",
        "l10n\/cs.json": "644b84b4c1306a53807431099740e3358d3112ca2bbe99ac5081dcb5b2a72fee23825cbde3fa73766627d2baf4d5abb68ce963f8c3a245c7b23c668e2b83a7ec",
        "l10n\/da.js": "ad840707b30adef3e0c1200df1e4f707183d8d4ffa3d6a2a31f870261c256c9897d608e6ccca823b045469fc1b7c3da58fedf0c7c79b2d5fd77553cbba532e1b",
        "l10n\/da.json": "4c943b1f0ce5fd9154139d55bfdcdcd75f3e5ffc48e93d7afd14baa186e75fc2f00a33d578c332fd4a6af99c98e54f197e460ba6b4c35988f065cdeabc51b1ce",
        "l10n\/de.js": "fb9172284e2086cc731b7949507631c684a408ee6674314f86e9aca7dac6db78af89a25ea66d12aff75f321c132f1b00ed799a49e4e931be2c200763ee8ef1dd",
        "l10n\/de.json": "c5a1806d04d55ea1aebe0598b249d1a8b28e94d98983fd62743516af3bd04d50947946e6ffbc9b6a7c3918189e9040390ef0a903f568952bd2411dc6e803bee6",
        "l10n\/de_DE.js": "e73e12211d148b32b55e1563bd42b965dc74717e3deb194ad6386166dbb4d3882eb31036aaeb1fcacce80ea837d7bcefa39b8c0ca4cc7685c157be155ded812d",
        "l10n\/de_DE.json": "cc8d788e0cda370e64335bbce02759a6ea0270ffd70590500405337c7d1d39c175dbde33899e697fce74ca75a65fdb4849cd145d53d061a5de6ebbb6983eec75",
        "l10n\/el.js": "7f2d6aa891efd354ad2930fe67604bd7da06b3c3b5c3ce290c80ce1abcd1bfca958350509b9fd18cb7a7d64d963e9c5cd5000dd8830ebecea8ef05535e4bb5d1",
        "l10n\/el.json": "98df2282b5e4c345f2e9b4011c3f5a29eba7c0cfa923938c5e84e029b384e91d3bbb0722cb2851fff53de034fc32909e7d4166211ce1d8855303c97d9624d3a5",
        "l10n\/eo.js": "74b723856bd94719bd2e80d2e42b14a4e97a915e5b6f4c5ed82ac2d275fd44f413b1995994afa4dfa4e9853b1da4058b14245f49365442faf4dfd24f00dc4942",
        "l10n\/eo.json": "c8001a3ff6ce168c4969c53d1d02cdd4637389cf9c31f64c8a52235d182111c2272cf67df2a8405e7540875c10387c5e1667efc5f032a27b97662d9dcb3b4608",
        "l10n\/es.js": "90156b6ea16ab798b6c0cb683f0bf22d5e742c6b65b24deb2a590216128536672b9616fe6eb34f9ece2ba652aa672a456170b355e4c75060f904e190baaae49c",
        "l10n\/es.json": "70d13d45384c3a7e5705d023547ae5a6005cceba12f5c922edad99f2317795240371740948a414e9b3119ae8e4a25dcb9a9bcffbe15ef2f538467ec94dedd579",
        "l10n\/es_AR.js": "5cd4c772fc8deb647f7a53843352dc10714f09096d972925eb339ad7dd634c06b44cb2765137df303313069054810eeb28cf81bd4a41659b570f35ae55d65cf8",
        "l10n\/es_AR.json": "48bc1f6a55718df958e1a3a5bbb8911ff2a69932deba12c8b946b98d15f15ae8ce6154c4bc22f0dc85dac301f8a3c93c86a8142f626267eba14fdf7e04706ace",
        "l10n\/eu.js": "4d0d1abbdb12e4a3b917de167ce3012a350d52578c41a3f529a9a73d5372384cccdd9c86e6fe7e9d482a198b14e8b75505deafc5855570403526f86eee683d30",
        "l10n\/eu.json": "9efbae5a6cdaed85a9b627a3efca5788706b357959ed446f95d46a4cff818c0111df0134a5c4822a87bf384725f40606c508e62145b87e1bb022cc21b0b7e613",
        "l10n\/fa.js": "fd807334cd361064c7db45c9524c7ae33f2faeb04b14b63dd05d357de0d287da6b57ce976034d21391db3785c0809dd1ba257423b0c18b6905685b6e866912ce",
        "l10n\/fa.json": "a48cbcaa5deb910835004e8cc0713d8a67e47af2c3ef524927c528c6e82958d001606413044fdcda4a6d3a35571cd53337130db7e9d0b24c7d26bb25637528ba",
        "l10n\/fi.js": "46550b020851ab91740b72d2e34af48503f20194d4f8fb3be3d682ebfe413c94c8c4c942981258770852858e4322674b1a3ff3b46429408758c7f92e2bcd158c",
        "l10n\/fi.json": "c7b52e80e8e37da134d0c54b1e6c1627dd20cba4eb05d066d8e9a8726ec42e04a7a90942945d42623e36f2fb28c5e8b0093ccfeb24e59a0627598c5294afd995",
        "l10n\/fo.js": "3eae34c58e15b7bfa0007168461d2eaad61f099661cd923fbebc1818d8106d990b0a682936713c8e9c477a85696434ef81d1bf49340ad07fbb81e414d7da44e8",
        "l10n\/fo.json": "a40f9020532aaf75108e84cd10e9e70c2578daaac638709c763b7ba3ee019437c669af147ade6079155330afd0d9038d70ec8874cc3072c55e71aa1cf669f055",
        "l10n\/fr.js": "882190be95f3bc2446fc082a98b809589f1e74956d69f094123839b662d918746dc5e4e5fb64df7478389017698fcdd23078c709528583d789d2d7e8d8a17f43",
        "l10n\/fr.json": "93ab78816165003e707aeec414559f815b6ef1e0fe31bc3d96ef5e015c441ad4304af4238af3f808f8e75a88a1a53256e23deda2c576680d0eff2e2dc0285774",
        "l10n\/gl.js": "61ac79818fdfda03cf0862ab0f50edd55341ecb117872871b44fadc695392351df054d3900495012d039faf7817f0aab44426e5be763db4b07c4b26a7b02b6cd",
        "l10n\/gl.json": "04836a1ade369a043d16d4b00759ebd07ee9f853dd8174b66492fe891fa3bd72857f934391fc9c1b27152a200a2ba95371f2771f7565291f9b4c9a46cc2244d2",
        "l10n\/he.js": "7ab757cdb675791fa195c27f9bdabb220f8057db265b65ff13adcfdad82aeb2f41b88819ca7c779b8fdab0f35f8116589baf5cb70c4cc28491a989f065615250",
        "l10n\/he.json": "ec89ac0f72ba2f1933875b35b7ecb9452a481bdf4aa2d3af835eba72acebfbb0021983e2be31e6ddf409d87afcd173fe82ead4cb049175efb6746f4410549778",
        "l10n\/hi_IN.js": "31fad7d76e2732ff6b3316e96c75ade75c08b1604669c3663fd6dadd655c73a3bcad8553758a3900075294c828ad47e3a7f9431820a99f9be1f30301bfc48be0",
        "l10n\/hi_IN.json": "2417f1e8ef06ee57604816a409e05f4eb0bb046e0d160f76c7bec1007c00f06dc1c042d562ea4bc9d9fc1a192260ebda5152f3a047272f175815603eb49aeb9f",
        "l10n\/hr.js": "cc4eb8f38c3edac8a195b3ebe7a5c27215250835529e90a8b8ad7a2d9884120cdaec89baea90860d83adc049bf0332f32841cdef1ae4ab6b0dce211f142eae5c",
        "l10n\/hr.json": "83913b91c3d7d7e16788e3b43d0234c6558cb0e90458d164600674833c9a9470df3ab995d27c5108520a2f3e7ca27233bfabb0b9477201cf43c43a5916fbe195",
        "l10n\/hu.js": "ebdb93b2061340d021d7da292f431623f97f540c62d136a457dd08b13a343dd47d417c736ec1b2a28a6126d1440a4d16fa5cbae1338634bef862a1e79c75e87f",
        "l10n\/hu.json": "c89431d36cbaf2b24b508ff592fe2c4e863db6a974eb55ccd82c7112766f792e632d82f7259b8eea30e833a34a4e4426b3e24676e4356d951dc4c0b3c889c60e",
        "l10n\/id.js": "777de2a746e5ed69d0316237ee2b287f8ac29774644e4ccec6bcc122123001207a41395507e5260e3c286c898ba9d9ba688781dd975809dd374162453118735e",
        "l10n\/id.json": "f6a12b1dd0d18847e786a2f0d02c1777d4ce754c96ccbe30036f1940f774b932e3c47426d33822dbe1af0f6841b32cf6a4147ad5d14d5b5f02737d0ebacd72b4",
        "l10n\/is.js": "a804315531d86bb650a12f2d2b4ff34de6fb5aea4f4d16e758df55aa38b71fe9dbf938441537cd02be6fb6c56b3f54709a595c0197155c6938ca4e702303b7f9",
        "l10n\/is.json": "7a5b423e5191a5a329309594530123d807d44fe18961c269c272dfcff75a9e30fadb978f020de06ee521a5ca57609c6f1d34262db89a642061d15cbd3f5bf2af",
        "l10n\/it.js": "f43287f5b468c5245fd07ae4982435c62d6dd4d0553123abd0b1f4878a4d4d74117c26a2acf7e3d320a1ab418a366a976c53a64497a35f900cebd133144c4c2f",
        "l10n\/it.json": "485bd0d74fff5fa44bd909a8313e76171fdb43dbeb5c14cf10d24f439d8fe3be665bfe21aaf6df03d3f7dddc3d6dba622b39eb0c11905e16873dcb3e15a568d0",
        "l10n\/ja.js": "b8bedb0eabd2959ac396e578a01ee2d6ed0265eaa1b41350dc3f8b7c1c5b699b64cdcce3145177d8bc10981cff51cd0cceb1e07757cfcc232cfb42b0771420b5",
        "l10n\/ja.json": "2630733075f54f67618f9e7a6b977ffdc83515c6fe91bf25c4897d33726588ad3c9da2820fe0b5c57597f720cd39ea447676978672fb69bd115392e8920b7bf6",
        "l10n\/ko.js": "97aae6364ff88ca1c7ca52167f1e9afa5ba107d7c0832eb92795d6d617fe0310419236f1d280b81904f591e32b3be773488f11975ff6b65e35cb77c512caf4e8",
        "l10n\/ko.json": "24a66634ffb13f0cc119a7f03372dcc714a64ae05f86a49ebbcd1d02450dcef99b924cbe233cad4345e05a90f5f38cb2abdf77212ccacb35fab56cf4b4ddccf5",
        "l10n\/lt_LT.js": "b862355e80ea8e2da6fada8d8f581ab03ac087aedd645c8e6f2af0fcf3ae86f9d6d1fcf2712ba8cb2371909a28b19d9cdc8854f3baffda4f03c1a7821b82d49a",
        "l10n\/lt_LT.json": "766d71947a5f52c24180875aa8956d9a17dbbbfc3f24555f14b7da7b401aa35b139b0afa550eca6c8d4a13af81d556c84056ca5f3f3e52b66986ceacfbafe76d",
        "l10n\/lv.js": "02133765fefc1fcf3d737247177578c1dc9ae3f7c7812fe052c0d8f96e2db917d88d1d542cb4c3bd2e73c154df9fd5bd3b5c2245bac0a206b9a01241399c3cd0",
        "l10n\/lv.json": "c507a2a6cf607076a4d24fd67cdb32eb0932f6a9937176d38ab209405b795e9a637a4ce49406cab9226033818c925e9126d599ed1ca0ce02bf686ece01d9fb81",
        "l10n\/mk.js": "3a80336c71e4a20fe5e14b18592b686acd4f5ef3d5afd596e8f6d284f40a20bb9d9a8aaa2e7c6304f887d35bba671864b678d6fdc1e72bc51ef13447244bd353",
        "l10n\/mk.json": "e3aa01de54cece00a1bdeace329c96a66a550255dfc883e1d2ef413b8ee1faefdcf259bbfb113dea8688fc8544aac4823ffd78342dcfef4f77ef828bd3a5a2b7",
        "l10n\/nb.js": "dee94b841d0e61d896981fac84d2c1807b1e5a5dc622caedbd8aac243b055535fbb51377a62d275b7f1868caf3e002a2e31bdd132f119fcf79b62fb7821ae45f",
        "l10n\/nb.json": "f413c1fdea667eb1650724421acc3eccddc4615f7d00fc65ac5207a4124d4d40955c1c9fe8851ea5aa1eb748931ec316f9f93f399b0b9c7627b804d690f96e59",
        "l10n\/nl.js": "89d97603b12089067f7d62510a4cea10566bb6eae5516a2acd08a057c44a514be5e053b3463409696ea40985e4608c6b5355b2d10defb07a5759a620c891405c",
        "l10n\/nl.json": "12118fb8f8e9c0da90d12653608c9d1a2f4053d6ec3c2fec9d0c0e786840847c4c8345827244bf6b5e79e2cab5e5be2a910ccbb8acb2581bf984bcea97c0bfa9",
        "l10n\/nn_NO.js": "3ad3bd93d1e90ac37dbd06d0dbeab2b5303cd7121cec22c1d65fa262f0931ba7b6fd09389fd78b05b96d704576f493b59cd3f67e96e16806e84988f0a86dd73a",
        "l10n\/nn_NO.json": "144c567e038700110d62cfe7d0aceffb0f628c0e7cbd00f95ac24f6c853e6bbece4009242edf85c6e53b900f525750d4ee359fcdb37c81f1ee5164a6d7033db8",
        "l10n\/pl.js": "f113196289045ded1fa86bdb39771c9e0cf706ff4a5b58fe974c117e2bd8bb47d864314b0f38eaa1f3a5188dd8197095a56be73d4bb42caa9624282b2072d689",
        "l10n\/pl.json": "9797bd4df311944fc715f98eb195831ea2ba0250968f0f9925c9ed420eaadcb8d0528c663f0ba286a44f050754c812ff25a96ce2b778e99417d0770031525385",
        "l10n\/pt_BR.js": "ccfea76292daa4b3e529580d1fa644e0d045bea9cd73443e9fd3e1976cff5d45bc08b8550ace04b7e15786a784f269c3f9374fb098589d9e400022589cf381b5",
        "l10n\/pt_BR.json": "2d24ba204c0b4a28e01ea82294277d9334c8a4afde5a32a841df1b7bd73df44d2db09a53bb9cf31530abcfba092d42d067245f6b468ee7f93f2cf97078486abb",
        "l10n\/pt_PT.js": "acf5b4d14f24f5e2d873a0ef0ae66f8029ac71214919662f9dca163efa49e8bf8ef931491e3b60389c173469881b533a7966a3bc04ddb9be3888d0ecbfde3512",
        "l10n\/pt_PT.json": "8c6db7085ce66c947846c08d39f3e6095cb313d1b6f83afc0db5620a81b5b0291686fa94663a94033a53ad04bfecf3b472425a1b4331dd60c4c26201f48d3f67",
        "l10n\/ro.js": "44f182e3611acd68064bc2b729bb85cdd2d5fdea80ae33b094ade4a0029d8c7f3d7423d79bdc5125432c950f54ed34f22fe682e34976c06eebeb8b1f1f556514",
        "l10n\/ro.json": "d6c578916f3a70bbb11d1990761712b4124b58b2b7052568b20fe0c8bc451e3ad9ad1201f7e77fb6bceaea5968321088387c91d222d9658b18e5c9039cb16062",
        "l10n\/ru.js": "d1b86151aabe09f607eef6ca9d861f9e41af3bc2c4d1a8f646a5315b57eb3f59f4576e02c33ab773a5e65fed3618ead58edc0bc5ae1f302ebbbe3d08ec2524c5",
        "l10n\/ru.json": "3b6076131921bc1e62742c9fe3c29fad63b0b5b1cddf544fab085f75c802375ff2ca65e83e5381896eb1d21aa3ee45aaf85eda8e0f6a0d0099f4d6b2e75e8202",
        "l10n\/sk.js": "1ffd728e2ce32f822631c086265084d7e9a711104337ff3c07a737312389beaafea52bef4f19698f3c9130da6730670e1d05b23190fe231700abafcb03a38f79",
        "l10n\/sk.json": "74b27fa5698c216aa56ccc85534a6aa83265640a128d2e29c0c351c05ac340ea981dcb3f0643efd82d34e01da3465716c03163c032dee9fbbfedea3f355969fc",
        "l10n\/sl.js": "9e150e6ba26c389b35f8821656fd6d69089a173fadf39c2b6c959236432dd1e5ca8985ae7b6a327080d300f88772fb1b5687ef8a0a48b7357e114ea391e8da1d",
        "l10n\/sl.json": "12b4739680c73673c92c7c9857a3fab5f3d05473672a198d214d1a8069d6e919bd363c959fd9dda6ce49d39e1164c1d397bb0c63cac967eb39d4f8c7d633dba6",
        "l10n\/sq.js": "c99801cad94cc8b591047a14df0ef0a1427bc0a51a3f9e1bacc5b69fae724ee02546594e152892b610f308960f711844a489915a58ef1d07c309f112862a00d0",
        "l10n\/sq.json": "6a689bf87ce9d5164c4af27b4ce5614682303ecf7f2bcf386e9fc67d3c0ae06303bd53b52ba050562ec53278bbf3e6db6bdd5f913e5cac094fdbc7133003a025",
        "l10n\/sr.js": "de859f2609aaf8848de7a7c840199209f6b1ab5bd8fe4eb1baa8cf65380eab00965ba4ba58402a7af3c85299f1f400d2cc473d3e0777bb942017a3ea30452f72",
        "l10n\/sr.json": "3df0283a9552bbc44d095a133caa3aa6d932b0cbcc771942428ad42aa4848dd89b2b37d479a7e3b179614b860fddb399821efbaa2cf5655d8f8b8b54cf93182b",
        "l10n\/sv.js": "c9c080f6d77c8732edb5a64cd529d10f4efc77e49c278cd4ba08fe90490562d0c58035832e739f9e46b1f4d61a48c9b68e5298095d253899c6e9462326dd13e0",
        "l10n\/sv.json": "a701c6d57028e8b6b2df037f6ead2ade75e0f7818031f9d7f232694a7eb8d49113f1cfed657961662826ebcc15de5f2bc831fd489d393cd26e4a449eebb9c8b0",
        "l10n\/tr.js": "173362513ee9a4a3aa9ac3733cf4ff04f0e20c006f98497b439f041204904cf2d2febde828435bd0ec033595fa31ecf8bdd62d9f2d8e9b15028e2649b983fd89",
        "l10n\/tr.json": "2e947b6206b0e78ebe8497fcdc8431f43ed9d71d838b337714b374527df65c5688cedea7a5e9baea627d7217cddbc153b7a8f23714ced6053dc4d27d63dd7de4",
        "l10n\/uk.js": "96329485186c379c7dfd1176610f8d8b0d75152d3514b0debffe0ea690683f05d4c178f6ed0dd15b95f32e72f3293c8af2f87e27e9d3ccee6f14bb57d10fcab0",
        "l10n\/uk.json": "86bebdeeda8e8adbd850b7d0fb337f697520ad2155e654037018692066c2fa421a5c5e9bcc25a90410b142ef3611e419dd7d17a4c0d6f4e1a8f14c4445a5daca",
        "l10n\/vi.js": "94400048c233080ec5786c56cf21842a9091f3ca2cc31240b2de7c9f5364f15f1762b006dc2f2ff90e3241dd07db9f22e68b52ea5acb768da4a26619c6baff67",
        "l10n\/vi.json": "de3d94d7774b4bb447584b798f756a90f9affd8737e1023c9af647b6789eb075ba21192ce381ae5e02b48c50ed9bee88237d985fd40ba89a7b17eabab443ad04",
        "l10n\/zh_CN.js": "067e2bd64cefbaaaf05db494aef3aff95c60dc646a68166a354c957b9fb24a74f8aed7abd3317af391379b0e4db8a097dee596704c4ae1f045826f89fb59e1ac",
        "l10n\/zh_CN.json": "18c29c6ed697a55d0eb59ea41674f0b79c65025611b4a564391ebe165ccee62f47dddc392bb578f629e861a3a80904b82fc9dab1d6bda31bb429a7f8ddf29032",
        "l10n\/zh_TW.js": "2adfadaae6162d016cd4082c6e711612296d5495702ac8cc2a54f3724f73e8c59bbbca378fecb5a3c2a189f47740017c30f4c813d6614ac2a159ac21f585c107",
        "l10n\/zh_TW.json": "95552832a01790ce28e35c7a6eb8555181c53aec808d97ca5a5eec67dbc38133221ca00c21400bcec58646042777e52d301651251601b798d72d9835ac3e80db",
        "lib\/AccessibilityProvider.php": "1ff66c65f11bb0af8865da013f70eb3fde2e3cea0448a38e918cf80f1bfd52ca33ac2ca69ec827e1b97f453e49064c83507bd998b1bdd5efb604dd46764e9ab5",
        "lib\/AppInfo\/Application.php": "c93a54da3cae97ed0a1e940e0270bf7791974f7acda611a7d5efde817cb5ebadc56916b95bc7a0320b5ec650032e453eb675424fa169646bf3c19bf758fb6077",
        "lib\/Controller\/AccessibilityController.php": "86a91663a2b34ef711a3f9d9dc027ca7afdd0f777fa3621b3fe763ec7c6e3bb2039e12b4b713a32a86d14e9b37042e89a9aea792023e42a19cc924833bb7670b",
        "lib\/Controller\/ConfigController.php": "9a7bb0e4291e325d401b207c7ac9bad72fa21f58befc1876a0829220ffcdc5b431f9e79b1b30068aaea6255ab083985974b43c00ffdaa8a2918c28f0fdc94bcd",
        "lib\/Settings\/Personal.php": "1ffdfd58d17d928c6ac56dba2c37a9f7c901c7e0919f511473d6c5d458417eb76bb4947fa3b6a1eed4b2f106ee86354c58a1f78e1547ce6aefc74c65b9a898c2",
        "lib\/Settings\/PersonalSection.php": "4c0a09240bf604043202b223639d3faadc5c52fdadddcb768a3c5aa2953d51853443e5cf46ad83060a2e5d0210f1621ea38d5c8f60a633c0aaf570c65f1ffe09",
        "templates\/settings-personal.php": "8fd8f998886905e89c3b0543556d06f744446ddab1552195a65da412ae924675eb5897d994898e98534576178592c369b231413202196c153ce6d09b935cfa40"
    },
    "signature": "Uu\/Y5irnZI1ndsIvWU2dpz0Ww0OyRx8MwDReSIEMphLgdMQt\/6aNwhvT7jGJw5wrUF7puEjJkpiAdIqbSzs9TRzBwva4XOdCGabE+qipLQmlfU5xs\/omfjejRyEXg5A8hpVeq1XigUz2tZRpWEkylK6q\/Vcm\/jnMlUZ3nckq1iDW2gOsTXiA2QUMpJdm82EGEoG4qTJHgqdaHE31LOF9YMaUjZAFiObzvy2zE+nDdVEfFbfNRVFbS\/R9KUeH5whFW1ic8yNW0uDsMOQKLslW38TlW0RH66kDiS6E9AkX+\/8Pb4pnUFrus4pK3Da58K8yvE8ogFneACQvAvdQ1SeqFg==",
    "certificate": "-----BEGIN CERTIFICATE-----\r\nMIIEojCCA4qgAwIBAgICEAAwDQYJKoZIhvcNAQELBQAwezELMAkGA1UEBhMCREUx\r\nGzAZBgNVBAgMEkJhZGVuLVd1ZXJ0dGVtYmVyZzEXMBUGA1UECgwOTmV4dGNsb3Vk\r\nIEdtYkgxNjA0BgNVBAMMLU5leHRjbG91ZCBDb2RlIFNpZ25pbmcgSW50ZXJtZWRp\r\nYXRlIEF1dGhvcml0eTAeFw0xNjA2MTIyMTA1MDZaFw00MTA2MDYyMTA1MDZaMGYx\r\nCzAJBgNVBAYTAkRFMRswGQYDVQQIDBJCYWRlbi1XdWVydHRlbWJlcmcxEjAQBgNV\r\nBAcMCVN0dXR0Z2FydDEXMBUGA1UECgwOTmV4dGNsb3VkIEdtYkgxDTALBgNVBAMM\r\nBGNvcmUwggEiMA0GCSqGSIb3DQEBAQUAA4IBDwAwggEKAoIBAQDUxcrn2DC892IX\r\n8+dJjZVh9YeHF65n2ha886oeAizOuHBdWBfzqt+GoUYTOjqZF93HZMcwy0P+xyCf\r\nQqak5Ke9dybN06RXUuGP45k9UYBp03qzlUzCDalrkj+Jd30LqcSC1sjRTsfuhc+u\r\nvH1IBuBnf7SMUJUcoEffbmmpAPlEcLHxlUGlGnz0q1e8UFzjbEFj3JucMO4ys35F\r\nqZS4dhvCngQhRW3DaMlQLXEUL9k3kFV+BzlkPzVZEtSmk4HJujFCnZj1vMcjQBg\/\r\nBqq1HCmUB6tulnGcxUzt\/Z\/oSIgnuGyENeke077W3EyryINL7EIyD4Xp7sxLizTM\r\nFCFCjjH1AgMBAAGjggFDMIIBPzAJBgNVHRMEAjAAMBEGCWCGSAGG+EIBAQQEAwIG\r\nQDAzBglghkgBhvhCAQ0EJhYkT3BlblNTTCBHZW5lcmF0ZWQgU2VydmVyIENlcnRp\r\nZmljYXRlMB0GA1UdDgQWBBQwc1H9AL8pRlW2e5SLCfPPqtqc0DCBpQYDVR0jBIGd\r\nMIGagBRt6m6qqTcsPIktFz79Ru7DnnjtdKF+pHwwejELMAkGA1UEBhMCREUxGzAZ\r\nBgNVBAgMEkJhZGVuLVd1ZXJ0dGVtYmVyZzESMBAGA1UEBwwJU3R1dHRnYXJ0MRcw\r\nFQYDVQQKDA5OZXh0Y2xvdWQgR21iSDEhMB8GA1UEAwwYTmV4dGNsb3VkIFJvb3Qg\r\nQXV0aG9yaXR5ggIQADAOBgNVHQ8BAf8EBAMCBaAwEwYDVR0lBAwwCgYIKwYBBQUH\r\nAwEwDQYJKoZIhvcNAQELBQADggEBADZ6+HV\/+0NEH3nahTBFxO6nKyR\/VWigACH0\r\nnaV0ecTcoQwDjKDNNFr+4S1WlHdwITlnNabC7v9rZ\/6QvbkrOTuO9fOR6azp1EwW\r\n2pixWqj0Sb9\/dSIVRpSq+jpBE6JAiX44dSR7zoBxRB8DgVO2Afy0s80xEpr5JAzb\r\nNYuPS7M5UHdAv2dr16fDcDIvn+vk92KpNh1NTeZFjBbRVQ9DXrgkRGW34TK8uSLI\r\nYG6jnfJ6eJgTaO431ywWPXNg1mUMaT\/+QBOgB299QVCKQU+lcZWptQt+RdsJUm46\r\nNY\/nARy4Oi4uOe88SuWITj9KhrFmEvrUlgM8FvoXA1ldrR7KiEg=\r\n-----END CERTIFICATE-----"
}