{
    "hashes": {
        ".babelrc.js": "4553f208abd6695e99d5eccd183a121893bd49f4b52992d0574b4b2768b95390895e98a7c035f346b683ebc9aea2b43c736e5b07c053e7ffd622dc7e7fd7a76c",
        "COPYING": "6e90d46be391aa645bcf4dfaa67f452cb15a73749f1895633789c7763b43cc0b65d391e5e95652c9a9a2063c956e0e8099a4e1ce4b70b0636629f9eac39c1080",
        "appinfo\/app.php": "e8a294e3054661c413b473e8bc96fcb2cb3d35c4f2792d3c75221430c4959426f74b4f81a4d33b873051033376a18f9432ebae8d0350593b2dc75f77e4470183",
        "appinfo\/database.xml": "687f3c63a4936f5d5bd494d3b717d4a2d1aede01c6dab4c6bef9258f9a563b50a4faab85ea979aa15e13004291423004d69f7efb695245e348eece09e3a8fa9e",
        "appinfo\/info.xml": "93e21784837b2d418dd324fd939bc49a651d7938d56c7fceee72f987e5b5a6b360165d5f76505dfec8ff69074112cd842a69b29bd9b031f7c46085319803bb5f",
        "appinfo\/routes.php": "5ef062793e1cc747c6c23b5bb780e2f0bc0998f3e29d6e68091967f0a414915d2642cda33eff63fc937d2b2a4081ecf6da67398acc2d9e21704fa629dbf49ff2",
        "css\/styles.scss": "6b526496c8b675cae14934f63378ea081101fec5c4c32246a07a03745c072bbb3a9060da2bd158c17e1a688a978a010af7eae4832e516afe10babecb8d32e17f",
        "docs\/admin-notifications.md": "8b7afcdefd8b15f964da1377108f1d62ee05aafaabbebf7782e635b0eb6cc128033ac2f060a289aa01ed4c371dc7bd80ab2c96c53816a9fe429a89f27f879370",
        "docs\/notification-workflow.md": "b669fbbd03185b1cadd9bc8e379dbe3eb5218c195e2a3b2515405e5d4c3d55de900ab137033a54e2c51fd8960f740dd068e92f386c5f1f3b04f128683625de59",
        "docs\/ocs-endpoint-v1.md": "1d82f9e8d39821c4c516f7340cf0dde7c1c0d4ba17eeeaf5a9a9dd4dded8a354c910f2436a31cf6bee853268ab8bdb9853e2f9a102ce110fb973bba985d86576",
        "docs\/ocs-endpoint-v2.md": "ecdc02c57bd944812ff0dab89f8ff4fe8eeccae014a1cc7bf6bd7987022c31a8c12290c01826216c95b0885b65dc38f00f9c765d593dea51732356c64d5c0d11",
        "docs\/push-v2.md": "3ae3a7c9118b4ec9a9a11739821c755562989e435e386c2586340317097a7e712cbbc4c4aea1e8c56d12d886f846fab53fe38ed4a8a76984108ff1c3deebc773",
        "docs\/screenshot.png": "d981cca2ba5c0bbbdf3c2721b4f3d93fbfd0a5c6cc3750e445210b25be25c18317641904b6bb191d8aff4e9e919fbc2b886de16ebf08e0d3ccd1282e0b7850e3",
        "img\/notifications-dark.svg": "79876280ff7924418efec7cdceab2b70468e610faa1082c98a7c95268aa4b5a7e531554e69911093f5b401f3a46945caf525d4198568e68ea103c2d2e805269e",
        "img\/notifications-new-dark.svg": "7fb9f4ce9f873d4457b983fd62613d0ebb0501e275462dd57f84819b373e67fa084e587632a7f08c14b9cefc063e9880a51946b0ac2b8d5e31b2bc33a2c768fb",
        "img\/notifications-new.svg": "29da2eeebe6d9c1400174d545b96937ab48ccd6e53299c9ef1fe03dbf62002b303af7cfe0d8c350b119bb3502960ea6fc0faf9bdeedea0b6e8d86efa49aec761",
        "img\/notifications-red-new-dark.svg": "d1f8c4d7a5acd097b7a0d3c5a5915a749c86d64f1be8d43100c4ea74a0385df21abd6afc0b641f4ab4378e962f494d912c686088cbcce6796848a70a17883aeb",
        "img\/notifications-red-new.svg": "a0a086690c8a629f3973cce10f61323cb2c49e83d57a3d8511f8c5995d746bc15ff42d9febd6dc15e2485bde43519c5f49f6951c01782ed38d584b58a6e14c39",
        "img\/notifications.png": "f427524eeb4c4a03075cea5304f0e18fc21f67a422ddbbf44f533cccd850587e845459762b18f68c394f952ea16c76c0732d99c9777a8eb53c3c01c1a7ddfd24",
        "img\/notifications.svg": "edeebf2c618308b82eff3e190e1e7425be3eae164502de698a5cd8d05c8db7a0626fbf86946fffcd996d1cb1601c461991a6c519e70397ef4c1c39a14a20ced8",
        "js\/notifications.js": "2729e24bd3bc4d37f6821ca7d4257ab1e4b82ad5d0c91a9c724f707494e7203caee7864c1d959eb4ce459c59f7f9401714c8a091b286c06cf53106d9241424b4",
        "js\/notifications.js.map": "bbe0e7ecc29dda8e2afd7e98c415e61088b25e0747b7987150f9c4bc995b5d0e2721aa7354c310301cac93aa42417f9bd4006d454027f394679df211e0ffbb4f",
        "l10n\/af.js": "0dc1b762f0c291e5134752e7e855a8f0137e05b079cf6eeebd3db9b0a9f1a1edc27ad6a0c17549f527d09514e8ef1152d4c0d65c9e032458c68fb9942e41ba27",
        "l10n\/af.json": "98ef05c278898c51e72874724717908fe507ed99f16137d94e6bc890589af1ec900e369500d89cfce86f1402a826c3cd2ba664f3e96bbc2d74fe0d3a6144cc46",
        "l10n\/ar.js": "cd07a13396fcd8b1fc358d55de6764d21377e990ca55588ef10aa7e5e8c80e01e2cc6733b34f51d7aaa4d44ba7cb56a79b46ccc38bf13c2007ad4bc57bb80650",
        "l10n\/ar.json": "039a5188740aacdc73919b675974212607d44ee6a5096ec778c9444e7b87685acafaf784010eb4957c40fae6b059384154809170b3c79c4bd9612a8c94abfbde",
        "l10n\/ast.js": "27a8dad7d497898f0bfd93e614bac718c91532429adc79f91287c530636b8912f99ad6cebfbfbe70da64255e88247975061d967c0d7731945c237e497d384e63",
        "l10n\/ast.json": "e7d7991ac4c480e2512d2efa8340120b9a64fdf583eed17225302510bf87a2b9f679db02fc0bb75a59c8eec50bd014ca1bfda794d08621c75e5549d6ad85ec25",
        "l10n\/bg.js": "08e86a20ae43d2f49c4b3a3ea8082a14b6136daae58e0f51a65e5ca1ebd162caff462f134fce459049f21b43d561db67ca4d1255809c039b4c64c2487571e6f3",
        "l10n\/bg.json": "74f47f3d050c1f0077da2487c34bef8f0d09dd09760e3bcabaeaec589131a5b51a90088d8dbd559be53997f9faf6a5094dfecbc09bb80c8e6044a58a76e39c74",
        "l10n\/ca.js": "c6c6c24855277076eaf812c6fa4fb72eab8208e35405945b4a49eb8593745fe84f9b61794987f7516973f775e7d0261b5d006010c1a0265832dbbd064c971149",
        "l10n\/ca.json": "b3d3afc18dceed196f57db3777de91470f907256a0ae68347371245132624f2f707ebbe45aaf3f5ce751be481926a3b633afab3d35d7cc02234584e3b57e9c7f",
        "l10n\/cs.js": "a16d1f6a9bcf07331b0a3421b96378756bef889a89e491f6b83985d74036733d4a1a79c428a738d3374d394656880723f2516972fee15c30725a75b8bcea1047",
        "l10n\/cs.json": "cf5145c311a8cbe1ce728fcb51364ddb331f9fc5c3bd184e4d234291c805e34ef8404e056c59ff3bf6c58b57fd958e89f7b80a0f917b719d7a29a6aa2869950f",
        "l10n\/da.js": "9f21e311bcee090c79d5a4dbc8e804c1444527253ab52a67fa137827d3f2f8c6a055f6ada77697c14a70e884aea724b1da702693b80d0181670a37de3efe9039",
        "l10n\/da.json": "b82a3829247cb6b9d74f8ecd7ba35a4f5d6a813ff096b4db8d863285c98b72c783ad08f31d900557c43fc25efd60649836da8564fd168f01950e248078f6b94b",
        "l10n\/de.js": "c774fe9675983f60f568bdd6f0a603e23290c469f1f185d8deb14ccc72426be4d7b734bcee816e64ea6a1cbc12f996b80008613bd0be26b05a1208ad231d1f64",
        "l10n\/de.json": "3bae0a030e38fe39e20e69d9893e64ca87f6bd0fd051e835ec2571287ae846fea3b491f5e17800255fae6feb1d5e570d5d332a6590f38111eb96d7bbed8ed427",
        "l10n\/de_DE.js": "d59dbf6535ec1e78c1c729d77996c0328007b13af01cb29d80e9d8ee2db3944a9502bd0ec7d2947c288e8dd181fc83dbac24b0d25d24af33991acf81225b3b7e",
        "l10n\/de_DE.json": "5e7777f8e3e9a29b868b89d444ddbd8c0ab212acb8060b2238e573be716aab2f5a3241e7a7ddc0015b102191a1ccc8a696953faea280943e97df2c06ff74c950",
        "l10n\/el.js": "7081bc766e36c0f5bf97f77767b9c567f220d3a292737d5733985cd34d8f952dcc857a737f443fd88c9116cd9ced30f3df2ead58da17e447cb1e0c01e66f0f4a",
        "l10n\/el.json": "de7d2be18c79e9fd23edd2126b031fa83440199da086af94c0686cedbcf1430e9198fb9f42ca0eb244f491e99edf5f76436b6ff68b65d05d07380905352a3de2",
        "l10n\/en_GB.js": "5dfed02e7d3177edfbd90a8db2843a862ae86c44c5f653ea016d921eeeed78d7675aa3b88b6cc4be38fe587d9225fc449454fbff73eb53e9f925818c015c9009",
        "l10n\/en_GB.json": "47676e38a759d785911e16c384b072c9b8beeeb690fe5db0c8de9c5e1d8f8b12e41257361ca574f53957b1cb8e2934b867bb4e9d90c8a40ae4c6fbb7f02d1dc5",
        "l10n\/eo.js": "73119b76cfec005e9056d87afdc3091950920adbdce517b76fc3b6fe32237126e28d545797af08b27deacbef1d3e60b57ada002d4eeb96e5c7cb0e8a6d7bd3cc",
        "l10n\/eo.json": "961f68b8db9321c93adfd76c2e565edd9e008acce28cb1581a3e2f9a8c5c3ac7ef7aa9feb2821f96e1e3f769af2f605f94e4ef37cc66606c0ac9365b40398ad7",
        "l10n\/es.js": "3548783adee46878670e14ac1954c08fdf93f6b24f1915a12949f7c0d1b2e4fa5b337cd09fe313b5f83004b05100c54a54175eb474cf8b7d1f15881b531cd54a",
        "l10n\/es.json": "538ee9c3c649e014ec54eb3196501c1dc300a9a0925edd34f905c94458b7534c2618a08747b0e903d0147a7197b2cf333ccace1dfce9aa297135ecab1af7e2db",
        "l10n\/es_419.js": "a32147fc44860763b35b59e42897f5ff2966fec925a631cd139b902caaf0bfdbfe913b14165f21d2ab6dd5e0dc5e307872014c3ba645a7f4af331ce611387b6e",
        "l10n\/es_419.json": "b358c2096cbca5e50f0e332f8ea4c59ad9f77db2a790430ee3e3f84fee9315e2b544cd3dffea4076504c151cd6d11d81733eb5c42d72e90c68d11298c52bc9aa",
        "l10n\/es_AR.js": "a32147fc44860763b35b59e42897f5ff2966fec925a631cd139b902caaf0bfdbfe913b14165f21d2ab6dd5e0dc5e307872014c3ba645a7f4af331ce611387b6e",
        "l10n\/es_AR.json": "b358c2096cbca5e50f0e332f8ea4c59ad9f77db2a790430ee3e3f84fee9315e2b544cd3dffea4076504c151cd6d11d81733eb5c42d72e90c68d11298c52bc9aa",
        "l10n\/es_CL.js": "782c2e86f03bb1684c83ea6b18762f2c99ce66594bf60375fc52078db040fbf029d53a4e2dc52252483047d4be679842857960217722b494cd6f5523244bb06e",
        "l10n\/es_CL.json": "47710d1b8b02e68ee754366ec40c2f007886455e5b7a84194a7a143f9e0bdbf4241ed1aaa8b464ebca377487448cd567a185def83d29569920c219c7247a91fa",
        "l10n\/es_CO.js": "782c2e86f03bb1684c83ea6b18762f2c99ce66594bf60375fc52078db040fbf029d53a4e2dc52252483047d4be679842857960217722b494cd6f5523244bb06e",
        "l10n\/es_CO.json": "47710d1b8b02e68ee754366ec40c2f007886455e5b7a84194a7a143f9e0bdbf4241ed1aaa8b464ebca377487448cd567a185def83d29569920c219c7247a91fa",
        "l10n\/es_CR.js": "782c2e86f03bb1684c83ea6b18762f2c99ce66594bf60375fc52078db040fbf029d53a4e2dc52252483047d4be679842857960217722b494cd6f5523244bb06e",
        "l10n\/es_CR.json": "47710d1b8b02e68ee754366ec40c2f007886455e5b7a84194a7a143f9e0bdbf4241ed1aaa8b464ebca377487448cd567a185def83d29569920c219c7247a91fa",
        "l10n\/es_DO.js": "782c2e86f03bb1684c83ea6b18762f2c99ce66594bf60375fc52078db040fbf029d53a4e2dc52252483047d4be679842857960217722b494cd6f5523244bb06e",
        "l10n\/es_DO.json": "47710d1b8b02e68ee754366ec40c2f007886455e5b7a84194a7a143f9e0bdbf4241ed1aaa8b464ebca377487448cd567a185def83d29569920c219c7247a91fa",
        "l10n\/es_EC.js": "782c2e86f03bb1684c83ea6b18762f2c99ce66594bf60375fc52078db040fbf029d53a4e2dc52252483047d4be679842857960217722b494cd6f5523244bb06e",
        "l10n\/es_EC.json": "47710d1b8b02e68ee754366ec40c2f007886455e5b7a84194a7a143f9e0bdbf4241ed1aaa8b464ebca377487448cd567a185def83d29569920c219c7247a91fa",
        "l10n\/es_GT.js": "782c2e86f03bb1684c83ea6b18762f2c99ce66594bf60375fc52078db040fbf029d53a4e2dc52252483047d4be679842857960217722b494cd6f5523244bb06e",
        "l10n\/es_GT.json": "47710d1b8b02e68ee754366ec40c2f007886455e5b7a84194a7a143f9e0bdbf4241ed1aaa8b464ebca377487448cd567a185def83d29569920c219c7247a91fa",
        "l10n\/es_HN.js": "a32147fc44860763b35b59e42897f5ff2966fec925a631cd139b902caaf0bfdbfe913b14165f21d2ab6dd5e0dc5e307872014c3ba645a7f4af331ce611387b6e",
        "l10n\/es_HN.json": "b358c2096cbca5e50f0e332f8ea4c59ad9f77db2a790430ee3e3f84fee9315e2b544cd3dffea4076504c151cd6d11d81733eb5c42d72e90c68d11298c52bc9aa",
        "l10n\/es_MX.js": "faa4fe9bba1dcb172ede0724a131d59e92efc41d3d5f38c0f4bde1e37cb480babdfd7829d61114c66d3e860fddb103b2460f8c5bdeb5b67a9668d0c69f4526cb",
        "l10n\/es_MX.json": "892a86c35ccbe4ac5f0e06fbf5ddb28e5d19c7a38d4f1fe354f2585f81dd06f6e00206952c9c0a29c7765f0fce17a8e4ecf53528fe6a5ad12c692af92fd35d5c",
        "l10n\/es_NI.js": "a32147fc44860763b35b59e42897f5ff2966fec925a631cd139b902caaf0bfdbfe913b14165f21d2ab6dd5e0dc5e307872014c3ba645a7f4af331ce611387b6e",
        "l10n\/es_NI.json": "b358c2096cbca5e50f0e332f8ea4c59ad9f77db2a790430ee3e3f84fee9315e2b544cd3dffea4076504c151cd6d11d81733eb5c42d72e90c68d11298c52bc9aa",
        "l10n\/es_PA.js": "a32147fc44860763b35b59e42897f5ff2966fec925a631cd139b902caaf0bfdbfe913b14165f21d2ab6dd5e0dc5e307872014c3ba645a7f4af331ce611387b6e",
        "l10n\/es_PA.json": "b358c2096cbca5e50f0e332f8ea4c59ad9f77db2a790430ee3e3f84fee9315e2b544cd3dffea4076504c151cd6d11d81733eb5c42d72e90c68d11298c52bc9aa",
        "l10n\/es_PE.js": "a32147fc44860763b35b59e42897f5ff2966fec925a631cd139b902caaf0bfdbfe913b14165f21d2ab6dd5e0dc5e307872014c3ba645a7f4af331ce611387b6e",
        "l10n\/es_PE.json": "b358c2096cbca5e50f0e332f8ea4c59ad9f77db2a790430ee3e3f84fee9315e2b544cd3dffea4076504c151cd6d11d81733eb5c42d72e90c68d11298c52bc9aa",
        "l10n\/es_PR.js": "a32147fc44860763b35b59e42897f5ff2966fec925a631cd139b902caaf0bfdbfe913b14165f21d2ab6dd5e0dc5e307872014c3ba645a7f4af331ce611387b6e",
        "l10n\/es_PR.json": "b358c2096cbca5e50f0e332f8ea4c59ad9f77db2a790430ee3e3f84fee9315e2b544cd3dffea4076504c151cd6d11d81733eb5c42d72e90c68d11298c52bc9aa",
        "l10n\/es_PY.js": "a32147fc44860763b35b59e42897f5ff2966fec925a631cd139b902caaf0bfdbfe913b14165f21d2ab6dd5e0dc5e307872014c3ba645a7f4af331ce611387b6e",
        "l10n\/es_PY.json": "b358c2096cbca5e50f0e332f8ea4c59ad9f77db2a790430ee3e3f84fee9315e2b544cd3dffea4076504c151cd6d11d81733eb5c42d72e90c68d11298c52bc9aa",
        "l10n\/es_SV.js": "782c2e86f03bb1684c83ea6b18762f2c99ce66594bf60375fc52078db040fbf029d53a4e2dc52252483047d4be679842857960217722b494cd6f5523244bb06e",
        "l10n\/es_SV.json": "47710d1b8b02e68ee754366ec40c2f007886455e5b7a84194a7a143f9e0bdbf4241ed1aaa8b464ebca377487448cd567a185def83d29569920c219c7247a91fa",
        "l10n\/es_UY.js": "a32147fc44860763b35b59e42897f5ff2966fec925a631cd139b902caaf0bfdbfe913b14165f21d2ab6dd5e0dc5e307872014c3ba645a7f4af331ce611387b6e",
        "l10n\/es_UY.json": "b358c2096cbca5e50f0e332f8ea4c59ad9f77db2a790430ee3e3f84fee9315e2b544cd3dffea4076504c151cd6d11d81733eb5c42d72e90c68d11298c52bc9aa",
        "l10n\/et_EE.js": "f1f5afed8fe1546252af8719b8f7b83f402eff80147b423b60de2f4b4c932d92bd7d1c0ffc8b88d5e5b4c8b9e576eb13f575556f7dbd62395ad541677b86130c",
        "l10n\/et_EE.json": "4700f429c8a70a6f603efe7decbebd7d636dae3649d14e39332dd7e45e4c55b46e738d13025760c95cbb66d9573ac2eb330f6392e7d8f41ebbd97b5f33239733",
        "l10n\/eu.js": "12acb44139b27f2d938a0b80daf05d917597fa56551f906f6e8747b0430290b73cacae5f83fb1b4e65df4a9fb14255a98dbcf905b7a1b440ab8a31e57f20c332",
        "l10n\/eu.json": "30c9667b483c39ad9a510fc3b422cba017a55c467237e0bc9c8489074069a204ca9114c7a41841bc173e26b8f126129b9c31b5cdcd18554cce8436199f885e24",
        "l10n\/fi.js": "42ffff5624b31e68b001a06e54877cb9d07fb9ea69e7d6e6f674efa6df4cd074f402bed85a574c89853cd4644df95aaa4ead6bf8a5ed72ec271a94d29acb5e8a",
        "l10n\/fi.json": "80ef5a87582dd815a84eb6ac2cff6399d22361192e519dde152c072f6615bce8044d64b7bd1faf90d998647bf06bc961594ab7c72d51e00023bf186f5c217a0f",
        "l10n\/fr.js": "c713c5b150015afbd1f5fb6236f6bbc121117a10b6dcb42d4744bf986bf6f936f10bf1a9aaf2d94e864ba883bf0ed252e942ee43f0ba802d7d9e973e2841226b",
        "l10n\/fr.json": "b79b530873083993591166777e3bf8d59bc427b20b672941d386cfae054dbd6e4b8b73f6eead9e70d77a0caad4f777e6d7a07c6042117afa4677eda11a530c5e",
        "l10n\/gl.js": "81c4783c20ccf0a47aebd36977bafc3de57ed05d29a1248d9a2d1237d36f2ed1dd4c94f0f21254008b77d1cfb76bee97b2d0989779014d44d8e28b1fadb1ad9c",
        "l10n\/gl.json": "878799f55685f3b35ba7eb87c6e77920ace49a67a98f1a6e48ba2ba7595ca8cfe3fb2f294404097f1d441437a8c7026de3953d01fac9ce5333a2c47aec9d9bed",
        "l10n\/he.js": "23aaf79d435f753a8f08033feafe7b57ad265e446b300ebad6b1cb99e19fc81c7d555ec2700a0881604918177c84ec44a035be493769d8f5899830ad0a057d45",
        "l10n\/he.json": "c551fd3209917a0dc2e9611a2312afc6d4766da23a9ceb2726d81ce4653e9a220b3ebd528e5cef8a0d2c9dd2f0c0460fe736a7671ae7826b8c9eff90eb01b7c7",
        "l10n\/hr.js": "181d2df4900d0159e1d1928c4ae12c2e63f9fc059a3bed4dbe5a29f582cd81c76357da837f06675255a3e75a679ceefc0a7127ce6a9a6da39955947300a651a8",
        "l10n\/hr.json": "418849339d7fa1621e9fb03b479d598d7555c9961fb5cf39d56a00aa9673fbb26c1a7dfa339c157d517a3512cb2658f4f7a8b12142ed56e7143100ca80adf709",
        "l10n\/hu.js": "3c38bca9aa71967036b70248e7f1b73a069ab51f3e65d6c5512d25c5d04c928d0dcc61cafc645217d8498d231e5c2ec4b6f980740cb564cb2bdf4d002ccf4e61",
        "l10n\/hu.json": "fad35eb7b75616572ca87c1ae8bfe4112ad10eb792a80bf8dce329a45ebe1d8a997091d63ea1c87cf122cc7ae182033b5bd2e306eb43b0b0656fb19c0989cc18",
        "l10n\/ia.js": "502d83181f6664eea1d7bc91f8ca93c0fa35eff67709b66d5d134fb79f17d83445fe08a8798c781a5dd69c66a67b4d8be0d81ec72886c7495e1a639f4221e5dd",
        "l10n\/ia.json": "749a274546d6833fcbc16085cfb58a32dbae51f4f9bb10f443626b29a555299b1b0d6748539504864e7582f4f69bfd957bf1b3900bb77cc097f3535b24597f59",
        "l10n\/id.js": "49dda1d47419dadbf4d1f640e07264a583ad8ee6536b73704a7b78e3a4b9ddcc31b9a0f0a7363f0431a357ea4859ed76795b6898c3cd7aa9eb885807740f3f61",
        "l10n\/id.json": "262001bcb6b9c3735fed915e8ac02503aa671483044c076a6394bfdcb80ed7177c404e99b8ff2448370be35cc218f0e7e313f1d783260c653b123945674a6b4e",
        "l10n\/is.js": "653a0cb47e323f1ce204f8cc16b7a542828e56b6a3722d9130b24edd1c45f36d839d28ebb5e9760e8a3029bf8f67ab72a57a5a71768d2902900f0a5c77afc179",
        "l10n\/is.json": "02cd99f1f516453d829bcf42ed9b247910b454721864507121455bbe04a2c0e2290415c7a452b0774e066ae3603165d4b919c096b112b0a6aaba0f6283ff8392",
        "l10n\/it.js": "06fbaa12f690775a32b0da11418eed77d6efe3a9c7dc5714591fb990daf3f9422ab70cc64e6e3838ed0540ac1cba0b617617b49b6fb1ced730c4a9012e7bdabe",
        "l10n\/it.json": "c72f959a7c6255f1b36f11a66d1580d58685d4caa270e0e0050dbe419b3fa9ac6d731df0ef5f4e3f7f8b3ad98b7e20a8155605a4bcc0fc78f050ae0970ea20cd",
        "l10n\/ja.js": "bab6b2451d92895ecad6c96631a057473fc072d2cf8bbc530df8c1d935996c8151cafa29103f2e61a37c7d8fd50aee13a96de257d00b38f965efa34097c9542b",
        "l10n\/ja.json": "2a13efe48a1b25659f0d7cd036ee631b02be4e89affa7ad5d5c2064c43ed2c314be5e99183a350c90c071ca8ebcf552f43c3255812af151c87d249a3817a62a8",
        "l10n\/ka_GE.js": "4110e72c9d0dee7e6472c1e54ca0f752b00a8430dde1391d5452b22640bf35c67dc36f87cd68f64b67a866b569370e34367e8506f21f3ee553291c30021ee1d7",
        "l10n\/ka_GE.json": "f336890fad13b3968963a905ddfd78465e4724d6eba144b19b82fb5f8c200ac13e734db92a74c0dc4ef6397197abf248d4e1b2925633c83126bdb87488a25ad4",
        "l10n\/ko.js": "ce59a82c5d5b085b83250e686b817f7434648d739db83c8f002263bad7cf945824600ecff45ef55d4f5e9e9522584802ddbcd4a66e053b5b5285e4ea4c21292d",
        "l10n\/ko.json": "7515eedbaf412b001dc7e2eb75e12e2c8f1c4bdfdae35edee2892e3a3d01c6058821d4750ac4ea106c3321af8b6f7e12b349183b1d2371180dd23aade35985a0",
        "l10n\/lt_LT.js": "1fbf7c361f66278ab2dc6c8b46d41ed51acbf50d23e82d05961f9905acbda48c10bda0acb32d1682a470894819fa0ad3438e20b185bd49f153db76304b005c80",
        "l10n\/lt_LT.json": "d95af2b4bc01a549eff004a72b7822928fccc9cac1b1eca3b3771aee5fbce0a056e49168bb5797597e387d270602606254473380c9729ae69f99c869dccb8b7f",
        "l10n\/lv.js": "87946854a5bc016506c18933ced65a6bf05a75216d12a4e64d131d182dda1f2f8a856421dbb28e3fbb67f6eafe47d3ff6ee977f9c0c9291b433d6dbf7daad60b",
        "l10n\/lv.json": "056447ca3e26053e9bb7f122c2a62276d59073b66e2dd68edd2473b3d7687928d73c43440840abcb13ab0b82edd84f59875ee1c1f44cece724cca8d4cf4f74d3",
        "l10n\/mk.js": "565726c0dd18ef1376f9b155c1ec4e439a20bfbb67370d1b772fd37128f7577ccc57670f0fca322ab3e1046f986991d01dd7a3167593052fe102bc631d63c086",
        "l10n\/mk.json": "44dc48c19a9bc7f630e15454e68fb826b4b3b8f51ed165ed58a8ec7cb584c85e9fd48b1c95ad950fa25046de320c2e1ebbf2c9152e4ebb028dcdd52d51f139f0",
        "l10n\/mn.js": "314c7364507f0b0500b6fb23f828d77cebbee4e3be066729bf797df2a1671fd9d3b92584019f69234017fe0e1b734387023368471d0b569f480d5cf0a2219252",
        "l10n\/mn.json": "9bc0305ec3f4b9b2771c9b1dfa9158eecfa0ba23c88944467ada1bbd31b898d5dff310d8a61e6f447b18e87ff50eec6ceb31cac90da2f1e0ebe5d024709efa24",
        "l10n\/nb.js": "7faf12f0139ee3867cc4f4eddba159eec4149a39c3e7a50185ae0c2853bc0e7414a291b869a832613ee4620645a8ea2144bc017888a50c9ed6e0875b85a15971",
        "l10n\/nb.json": "a816a4398874dfccd2124da99a867669218de47452357b3bd4d76c8aa4a44af8b14408b79fb5729763ecbd63541499800886ddef3f56cb6e483aa9c20ffb5274",
        "l10n\/nl.js": "8307a7a1f38b181155b9e16c2fc57640d0c91df4f721a6f829aa626273904c45eb61f4c398e4c7a7efee636775e93d8082594192acadda0fc9f029f03193bc86",
        "l10n\/nl.json": "e17d1d8a1c9b7585f2f828367fbe3abdebb41ab052dfab5e00dc9bc23f2fb89c802a46086a804ad9ef9b62a6cfcdbbd12efe382c75406a87763d078b5f698cc0",
        "l10n\/pl.js": "2c4079ee801feb1c8ee3a2c2518b54f672529fcbdf59e3904795039fc0152172695eb01541ec375d62b64f8fc185949012a76e8138590cb4d8b8e60294c2f20d",
        "l10n\/pl.json": "570661e3f009c40b7eee975245615883a13de3801c9b37eef1e6948522dd396b9544d65fb4f6935f4287b301e1df43f9d34e2dd1474fcfdb36806c6edadd85c7",
        "l10n\/pt_BR.js": "716caec3e1b521271490ce46224df82d5c49bf659d574b7ce18e82ec30721fd25544dc667b0c7694a85556a7e25c58c40cff4f81666f2d21d6fda36d1d967ac4",
        "l10n\/pt_BR.json": "10c37403cc28a52577ab841a023f196d7a858733c3dde8c6f336c1b822f7890f0e008467a51132337702728e19492ee9dd9daf515a0db1e170f7425401389620",
        "l10n\/pt_PT.js": "f40a27a2a4656bac3616725ae839696fc26af3f9ec879be3b83d56f847bb8db8df8939f016913f90ca17dcea1d18a5b2ac45ccac4557186382fc7cb4bfb5a6a7",
        "l10n\/pt_PT.json": "c6651bd8ebb6aa56bb05da9d6f84d09e7c4d763eb0259dd0e1cd304f6a93242b99d779c48feb17ed39dfbbc54b56f63651080a9fce19c080b92bb5fe296a6a20",
        "l10n\/ro.js": "b7e8d0748f4d0e2696ef0ea12f70a1b1791c7183247fccb9302e9c18242d3367831f339c37b1019fd83b20df355e821a52c26349faa5e8b0d5eec8375ba7afb1",
        "l10n\/ro.json": "c3f3abca9e9f63304de6279a6f1807083cdb05184428fb04cf8ffa7a51eb2a4a0339075a5b078c78ebe5523d0281497942b98efc785c1e538abb023a2673f6a2",
        "l10n\/ru.js": "f37d98d7598950b81a72f614d9e8f371d77bc132b01b18dd4a26ecb87d65a4a0610f51d8fcd35ae681413b9a9b3703b5b4cb86ee6309495cfcf0bfc2f74fb825",
        "l10n\/ru.json": "5104be176a4740ffca1e817a74bbbdbd5d978d39be5c16924c0bdffbf70a9fe0a20d2a9cfb0480bc2502f7ddfc3fd948b73d1c0156c8619001b5af5d9171b051",
        "l10n\/sk.js": "2e85dd4e9ca417da076228cacec9daf915355d8178f75ff485d04cb8b63e2354924dba65e8ff23ad4a95df59e304d39c2c84a0d52063cc701e8dc5e2925f17d7",
        "l10n\/sk.json": "fe2249014e20ca8d401edab571177753d359d063665b7e66bd777c32c9b44fa618e3af64a5dc4b3b7c18c3e937ff67c6df43f7f63d02810a1b6c7fe750e4778c",
        "l10n\/sl.js": "1a579058ac3d6defc04a1bc51ba832464a75927c68d584ea294e6b8cc7030a0e102e0473f0785d23db9911fd5a34674122e48256642017e101dec374be6d3a2a",
        "l10n\/sl.json": "cebfdc7ee1dde8c31005c4bb3c5829af6d20dd01d12ee88beefdb915d4dd979d1e48eafaaca0ba82bd590679c45995586ce84da7a2bc4c1a86eddfc742e0bd82",
        "l10n\/sq.js": "e78603a497c828eec92c6ce9322c8db9d86fc681f77724ac04e939ba3034888baa6c59fde3a6dd7ecb36a3d28a0513539cc2397c2136704272305722e7f2f3ae",
        "l10n\/sq.json": "404a710198dc3236cc796dceed34b6cf1669fc9bf243cf8350c4a3aa8e28362aff741ca296c13099efb0a412ff6f80d7bd36529457f228cc67027e3def390999",
        "l10n\/sr.js": "2fb4010226ef6556656ea6542e78b0056671e5c97f680d1793a01e28a800f21f89be2f00237a1addd52b819ae5f7d50037b43654f78c7d7eb3f5de2ce55aab73",
        "l10n\/sr.json": "d3d00f058247f55065a1a533862db1703227cfc35f9d4905af67b523bb2f410aaa2915d16d9ee7b49a526249f45bb7873ba63701d7084eef7636c80ca5f02dc1",
        "l10n\/sv.js": "166f837a444fc72caa216852aa9615077f4d60969f0e08b2b82023eff26358084fe40abc92e251d7bebfcd1c6183e7df825280e6c7bcdf7a713ecea78ef99a89",
        "l10n\/sv.json": "2039ae9d5376ca9130f6f5f03106d3f15a6b0594c20ee7084cd59a82376a989f8f5289bb5f85f356411a7c25a8c1a7ee466eac40137513f0630cfdd36bee1c16",
        "l10n\/tr.js": "d3e3f5d7ca06a72e4338cfc61196b98b775844f867f4411dfcd84a50d2169a37b378e84594cdb76797c74d9ec1488f4e6e10e7584acf1336d249518b8d856dff",
        "l10n\/tr.json": "5b4acdf4358e263aa51ef11f205703f631284f017cfc728d81b8764fb9ca1e9a85cb21e8438fca64e17b95161a52bb59e65970ef95aa102b4cadeaa5daa33215",
        "l10n\/uk.js": "a83af1c3649483d2317ca3962a7fabec845b0e5cfe8331066698208438cfaad28082540203d271dde5f620f4d9927bb7b2e67de6ea972bd29732f3d448111f3c",
        "l10n\/uk.json": "b8f4f7339857a890ffb3191ba3db4f962eafd369895819c4bdc3ee01c38d491b51a494aa83d5c751525d6b1d8482b230044759aedc9244f1c77882bc80b0705a",
        "l10n\/uz.js": "619e49f38fcadfbde480e3d1ecad211adbc7995222ec9fdfa69de9cb4bc6575ef6fbee9054038ea4a69f642f2231db27d531c4a64528011cb02df43aad5ff0f4",
        "l10n\/uz.json": "d4a9b764c8fbd1e77ae92dea81e778c4fa3b54842f48853825e980ebccfc7fb060958b36db0b12a1024823303c23d4b957e602e5547816aebc66f832868c12d8",
        "l10n\/vi.js": "b43a69cc1b09854ebf5c35eefb1b66333bea4af1283fe3baddafec8a43f58db65481c54dd5da07057fb0cbe5c62a6581ef5765352b1b6038f49a60339882ec8b",
        "l10n\/vi.json": "ca27de9c225cde633ffc71776bde10ad596024e94a222459c91351261fdda2fa002e179c83658bb398ab37d9810c596203558a09024c97e67485627d90fc2cfc",
        "l10n\/zh_CN.js": "21623638587af1915781f583343c0ae8d9740fb8a83c84b8bfd1c1ab4ee155ecec19ab8cc6cfe010c45fde283b5c4a225bdd9ce9ea45137a176c98c3de06e8ce",
        "l10n\/zh_CN.json": "bbd475f9ce73f5c8982074b4bc9e58820821c893bf90542bc5e8baec75bd68884aafd9911221cce7ccca26b3a7aacca564c5fd27247c759e8804eee89cba9788",
        "l10n\/zh_TW.js": "d7005c923620f4fb7a213d33e9703c574d7f5b552e7e1ad065fe5d68ffceece3b3041061fb11afb04d956f3850df00960bc8835b9e16ad108bb9292005909b33",
        "l10n\/zh_TW.json": "1a6588716cfaeeb43ac439e6f412da05e602a1391ab47cc9582e34312fbfa8fa717b60e8aeceb389f4d2c54be6aeddcaf493466118e1e5f8c0d85074ca813490",
        "lib\/App.php": "5411f0ec697dd57173b151255ea80914cd724e9aa59c45c85b529f6b446e430255fdff429b15e524e5a5e7e4d63ef7d747c516a9c0804aa9b38e8d47c464688a",
        "lib\/AppInfo\/Application.php": "9a42010631bfba19db47227d7ecb139ad1cebaee3dc5d105303acc0bbc5b3bf4bc37623da91c511ea9a4905d40de012e91f5a27401d4eae47274408306b41fad",
        "lib\/Capabilities.php": "b4b0ebfa87494ab99ee857253fecd59dd149f1a8554dcd5d0cc6e3ecd4256b07ead842f4ebfd29ff0ed6537fd032292be378ad56ba8054c7b24a1d07c5a3c56d",
        "lib\/Command\/Generate.php": "313b3b22aee78d54f64f5cd3cecc6898d4b8170761c844aacd574725627b7048561a751aab4930e14e55f9217f20d1fc4a07109052675e5aedfc35ecb36fa9ba",
        "lib\/Controller\/APIController.php": "1997dd51b00861123a717154337a90754d1e881f267594504714d7a8d3a910e54b82bca919860e3e448bd02f728146d1b926d87ebf422fed7dbd3ef1daa580f9",
        "lib\/Controller\/EndpointController.php": "373b0cbc922401a71fbb160542e0638a2af1c9e90bf5e7ef81842ccd75ed6dec07d751390303ceafb32e3be3293bc6d3099c6e916873afe45f7e872f0fef6b4a",
        "lib\/Controller\/PushController.php": "c827542099e839667e893dc0e49d005bbc87273bf7db42481af25a3463004236c13866bb71a5d07c99e13b0b32d688358879641b315b23fa1a34655c908d20c8",
        "lib\/Exceptions\/NotificationNotFoundException.php": "f235c901df57c03515bea7a5a7c05806877b8c64e0a3b3497601201d4e944721e198dfbbee3fc7c8e5364a45db7a10f0a6bfd65f3729afbf5caf33698b122f92",
        "lib\/Handler.php": "c0c2d43ee8f3988ef0fdb3491fe781a67edb69d6db878dd0d45d2dbaaad3146907cdaaed7b30df99a3d201221df798356486cebc248ecfebe3cea28cb2a2ffbf",
        "lib\/Notifier\/AdminNotifications.php": "9f488fd89dcfe18d82ea3f040418fd138e90d168efc733f03dcc63f52211424a36d3e1cf8ca692a628e1d34ba652eecc2cbcd478a241a8d68647996bdcd5c79f",
        "lib\/Push.php": "4e55cc86630f3ecb7827d5ea4538834303fabe1486e6ecba593531f9eb67440e46e650bdf6878914ccbca133ff27976b936097bb6d256dafa62137264343afa9"
    },
    "signature": "QPUuwb3EPmbFUOhuoFofajJOLYISMO3C+5f8fMjKZ4c7ziOsiLWhrVYP4BRrOgs8GAGYkRs9Oc1S7mezkPnxsVnNKauR9n4cTFCOj9OGTiNDkKcUMFDgF5RJFlPXkpTVw7ZfPE+mKeG0RtsRkZACU1r0gC45DLBKC+VUm\/mHNQZ2V\/LvnLBSh+n3lX0Rw\/CkdzxAglziAm9y8RMssWir3urvRRi9YJwLTut1O6rmSVeK9z+Ks9MaV+3hWL+hJl+UCA0SixCnMyxDQb2U7K84MI92rbxRWY6azj69vzOVVYH4DjFgWhXy5KxtbI7bV75aRANVDxcsTdNvsC5LrmlSgA==",
    "certificate": "-----BEGIN CERTIFICATE-----\r\nMIIEojCCA4qgAwIBAgICEAAwDQYJKoZIhvcNAQELBQAwezELMAkGA1UEBhMCREUx\r\nGzAZBgNVBAgMEkJhZGVuLVd1ZXJ0dGVtYmVyZzEXMBUGA1UECgwOTmV4dGNsb3Vk\r\nIEdtYkgxNjA0BgNVBAMMLU5leHRjbG91ZCBDb2RlIFNpZ25pbmcgSW50ZXJtZWRp\r\nYXRlIEF1dGhvcml0eTAeFw0xNjA2MTIyMTA1MDZaFw00MTA2MDYyMTA1MDZaMGYx\r\nCzAJBgNVBAYTAkRFMRswGQYDVQQIDBJCYWRlbi1XdWVydHRlbWJlcmcxEjAQBgNV\r\nBAcMCVN0dXR0Z2FydDEXMBUGA1UECgwOTmV4dGNsb3VkIEdtYkgxDTALBgNVBAMM\r\nBGNvcmUwggEiMA0GCSqGSIb3DQEBAQUAA4IBDwAwggEKAoIBAQDUxcrn2DC892IX\r\n8+dJjZVh9YeHF65n2ha886oeAizOuHBdWBfzqt+GoUYTOjqZF93HZMcwy0P+xyCf\r\nQqak5Ke9dybN06RXUuGP45k9UYBp03qzlUzCDalrkj+Jd30LqcSC1sjRTsfuhc+u\r\nvH1IBuBnf7SMUJUcoEffbmmpAPlEcLHxlUGlGnz0q1e8UFzjbEFj3JucMO4ys35F\r\nqZS4dhvCngQhRW3DaMlQLXEUL9k3kFV+BzlkPzVZEtSmk4HJujFCnZj1vMcjQBg\/\r\nBqq1HCmUB6tulnGcxUzt\/Z\/oSIgnuGyENeke077W3EyryINL7EIyD4Xp7sxLizTM\r\nFCFCjjH1AgMBAAGjggFDMIIBPzAJBgNVHRMEAjAAMBEGCWCGSAGG+EIBAQQEAwIG\r\nQDAzBglghkgBhvhCAQ0EJhYkT3BlblNTTCBHZW5lcmF0ZWQgU2VydmVyIENlcnRp\r\nZmljYXRlMB0GA1UdDgQWBBQwc1H9AL8pRlW2e5SLCfPPqtqc0DCBpQYDVR0jBIGd\r\nMIGagBRt6m6qqTcsPIktFz79Ru7DnnjtdKF+pHwwejELMAkGA1UEBhMCREUxGzAZ\r\nBgNVBAgMEkJhZGVuLVd1ZXJ0dGVtYmVyZzESMBAGA1UEBwwJU3R1dHRnYXJ0MRcw\r\nFQYDVQQKDA5OZXh0Y2xvdWQgR21iSDEhMB8GA1UEAwwYTmV4dGNsb3VkIFJvb3Qg\r\nQXV0aG9yaXR5ggIQADAOBgNVHQ8BAf8EBAMCBaAwEwYDVR0lBAwwCgYIKwYBBQUH\r\nAwEwDQYJKoZIhvcNAQELBQADggEBADZ6+HV\/+0NEH3nahTBFxO6nKyR\/VWigACH0\r\nnaV0ecTcoQwDjKDNNFr+4S1WlHdwITlnNabC7v9rZ\/6QvbkrOTuO9fOR6azp1EwW\r\n2pixWqj0Sb9\/dSIVRpSq+jpBE6JAiX44dSR7zoBxRB8DgVO2Afy0s80xEpr5JAzb\r\nNYuPS7M5UHdAv2dr16fDcDIvn+vk92KpNh1NTeZFjBbRVQ9DXrgkRGW34TK8uSLI\r\nYG6jnfJ6eJgTaO431ywWPXNg1mUMaT\/+QBOgB299QVCKQU+lcZWptQt+RdsJUm46\r\nNY\/nARy4Oi4uOe88SuWITj9KhrFmEvrUlgM8FvoXA1ldrR7KiEg=\r\n-----END CERTIFICATE-----"
}